{
	"1": {
		"ID": 1,
		"Name": "尼德霍格",
		"Desc": "传说中盘踞在通往「亡者国度」路途中的「瘟疫之龙」，它是世界的瘟疫之源，任何胆敢靠近它的生物都会感染瘟疫。\n\n尼德霍格一直在利用毒液腐蚀着生与死的通路，当通路断绝之时，世界将不再有新的生命诞生，而死亡将成为永恒的主宰。",
		"MonsterLevel": 70,
		"BattleID": 41001,
		"RecordRewardID": 1,
		"MissionID": [
			40001,
			40002,
			40003,
			40004,
			40005,
			40006,
			40007,
			40008,
			40009,
			40010,
			40011
		],
		"AchievementID": [
			501,
			502,
			503,
			504,
			505,
			506
		],
		"BossSkillList": [
			40739,
			40741,
			40742,
			40744
		],
		"BossProcess": "尼德霍格拥有强大的魔法攻击能力，并且会不停将自身携带的<color=#DC143C>「瘟疫」</color>传播给场上的单位。<color=#DC143C>「瘟疫」</color>状态下的单位将不停损失生命并且对范围伤害的抗性将大幅降低。\n\n当尼德霍格受到一定程度攻击时会分裂为<color=#DC143C>「毒龙之血」</color>。\n\n每个<color=#DC143C>「毒龙之血」</color>被消灭时都会对全场敌人造成<color=#DC143C>魔法伤害</color>。当全部<color=#DC143C>「毒龙之血」</color>被消灭时，尼德霍格将会重生。\n\n<color=#DC143C>战斗时间越长，尼德霍格将会变得越发强大，而分裂成的「毒龙之血」也会更加难缠。</color>",
		"UpHeroTagIDS": [
			6,
			9
		],
		"RecommendHeros": [
			{
				"Hero": 56,
				"DescId": 2030
			},
			{
				"Hero": 51,
				"DescId": 2031
			},
			{
				"Hero": 26,
				"DescId": 2032
			},
			{
				"Hero": 61,
				"DescId": 2033
			},
			{
				"Hero": 54,
				"DescId": 2034
			},
			{
				"Hero": 15,
				"DescId": 2035
			},
			{
				"Hero": 55,
				"DescId": 2036
			},
			{
				"Hero": 8,
				"DescId": 2037
			}
		],
		"UpSkillID": 42299,
		"UpSkillDesc": "使用<color=red>优势阵营</color>英雄时，可获得<color=red>100%</color>的全属性加成",
		"BehavioralCycle": [
			{
				"Boss": 475,
				"BehavioralDesc": 1
			},
			{
				"Boss": 476,
				"BehavioralDesc": 2
			}
		],
		"BossImage": "UI/AncientCall_ABS/BossBanner/Banner_BOSS_1.png"
	},
	"2": {
		"ID": 2,
		"Name": "芬里尔",
		"Desc": "传说中「摇动大地的魔物」，人类识海幻想中被封印的恐惧之源，拥有「吞噬天地」的伟力。\n\n芬里尔的残暴引起了远古众神的愤怒，为了使人类拥有对抗它的可能，远古众神赐予了敢挑战芬里尔的英雄激活「众神之力」的能力。",
		"MonsterLevel": 70,
		"BattleID": 41000,
		"RecordRewardID": 2,
		"MissionID": [
			40101,
			40102,
			40103,
			40104,
			40105,
			40106,
			40107,
			40108,
			40109,
			40110,
			40111
		],
		"AchievementID": [
			601,
			602,
			603,
			604,
			605,
			606
		],
		"BossSkillList": [
			40737,
			40733,
			40734,
			40735
		],
		"BossProcess": "在每回合结束后芬里尔会对胆敢挑战它的人附加一层<color=#DC143C>「恐惧」</color>效果。<color=#DC143C>「恐惧」</color>到达极限的单位，将无法抵抗芬里尔的攻击。芬里尔也会召唤狼灵来协助自身作战。\n\n在与芬里尔的作战中，<color=#DC143C>「众神之力」</color>将是对抗芬里尔的关键要点。当对芬里尔施加四层负面状态后将会激活<color=#DC143C>「众神之力」</color>以消除恐惧并回复生命。\n\n当芬里尔受到一定程度的攻击时会进入抵抗状态，需叠满<color=#DC143C>六层</color>负面状态才能激活「众神之力」。当芬里尔受到一定程度的攻击后将会结束抵抗状态。\n\n<color=#DC143C>随着战斗时间的增长，芬里尔将会变得越发强大。</color>",
		"UpHeroTagIDS": [
			5,
			11
		],
		"RecommendHeros": [
			{
				"Hero": 9,
				"DescId": 2040
			},
			{
				"Hero": 4,
				"DescId": 2045
			},
			{
				"Hero": 7,
				"DescId": 2041
			},
			{
				"Hero": 8,
				"DescId": 2042
			},
			{
				"Hero": 25,
				"DescId": 2043
			},
			{
				"Hero": 17,
				"DescId": 2044
			},
			{
				"Hero": 89,
				"DescId": 2046
			},
			{
				"Hero": 61,
				"DescId": 2047
			}
		],
		"UpSkillID": 42299,
		"UpSkillDesc": "使用<color=red>优势阵营</color>英雄时，可获得<color=red>100%</color>的全属性加成",
		"BehavioralCycle": [
			{
				"Boss": 470,
				"BehavioralDesc": 3
			},
			{
				"Boss": 471,
				"BehavioralDesc": 3
			}
		],
		"BossImage": "UI/AncientCall_ABS/BossBanner/Banner_BOSS_5.png"
	},
	"3": {
		"ID": 3,
		"Name": "斯雷普尼尔",
		"Desc": "远古众神之主的坐骑，拥有八脚可飞跃天空、横渡海洋的远古异种。\n\n斯雷普尼尔获得了远古众神之主的赐福，拥有了操纵引力和重力的独特能力。",
		"MonsterLevel": 70,
		"BattleID": 41002,
		"RecordRewardID": 3,
		"MissionID": [
			40201,
			40202,
			40203,
			40204,
			40205,
			40206,
			40207,
			40208,
			40209,
			40210,
			40211
		],
		"AchievementID": [
			701,
			702,
			703,
			704,
			705,
			706
		],
		"BossSkillList": [
			40751,
			40754,
			40755,
			40756
		],
		"BossProcess": "最初阶段的斯雷普尼尔受限不会移动，但它拥有强力的单体攻击能力和不俗的范围伤害手段。<color=#DC143C>回合结束后所有部队都会被传送到它的身边并受到范围伤害</color>。\n\n当斯雷普尼尔受到一定程度的攻击后将会解除限制，<color=#DC143C>进行不限移动距离的攻击</color>。\n\n在这个阶段，任何敢于和它站在<color=#DC143C>同一直线上</color>的敌人都会被毫不留情的秒杀。\n\n每回合斯雷普尼尔将会对场上随机一个单位进行<color=#DC143C>追猎</color>，被<color=#DC143C>追猎</color>的单位，将会受到斯雷普尼尔<color=#DC143C>「暗影奔袭」</color>的攻击。\n\n同时斯雷普尼尔在击杀敌人后会额外行动一次，回合结束后将两个敌方部队拉到自身周围。斯雷普尼尔受到一定程度的攻击后将会再次被限制。\n\n<color=#DC143C>随着战斗时间增长，斯雷普尼尔会变得越发强大。</color>",
		"UpHeroTagIDS": [
			4,
			7
		],
		"RecommendHeros": [
			{
				"Hero": 6,
				"DescId": 2050
			},
			{
				"Hero": 38,
				"DescId": 2051
			},
			{
				"Hero": 88,
				"DescId": 2052
			},
			{
				"Hero": 26,
				"DescId": 2054
			},
			{
				"Hero": 21,
				"DescId": 2053
			},
			{
				"Hero": 32,
				"DescId": 2056
			},
			{
				"Hero": 57,
				"DescId": 2055
			},
			{
				"Hero": 18,
				"DescId": 2057
			}
		],
		"UpSkillID": 42299,
		"UpSkillDesc": "使用<color=red>优势阵营</color>英雄时，可获得<color=red>100%</color>的全属性加成",
		"BehavioralCycle": [
			{
				"Boss": 479,
				"BehavioralDesc": 4
			},
			{
				"Boss": 480,
				"BehavioralDesc": 5
			}
		],
		"BossImage": "UI/AncientCall_ABS/BossBanner/Banner_BOSS_3.png"
	},
	"4": {
		"ID": 4,
		"Name": "耶梦加得",
		"Desc": "囚禁在「无尽之海」中的「尘世巨蟒」，当它翻身或甩尾时都会引发海啸。\n\n长久以来的囚禁使得耶梦加得对远古众神深恶痛绝，而对此无能为力的它最终陷入了无边的「暴怒」中不可自拔。",
		"MonsterLevel": 70,
		"BattleID": 41004,
		"RecordRewardID": 4,
		"MissionID": [
			40301,
			40302,
			40303,
			40304,
			40305,
			40306,
			40307,
			40308,
			40309,
			40310,
			40311
		],
		"AchievementID": [
			801,
			802,
			803,
			804,
			805,
			806
		],
		"BossSkillList": [
			40724,
			40725,
			40726,
			40727
		],
		"BossProcess": "耶梦加得具有强大的范围攻击能力，在每次行动结束后都会对所有敌人造成一次范围伤害。同时，四周敌人过少时，它会陷入<color=#DC143C>「暴怒」</color>状态。\n\n主动攻击它以及被它特殊技能命中的敌人，都将获得<color=#DC143C>「毒液」</color>效果，中毒状态下的单位对范围伤害的抗性将大幅降低。\n\n当耶梦加得受到一定程度的攻击后会进入异化阶段，获得<color=#DC143C>「变化鳞甲」</color>，使得耶梦加得在面对远近不同距离的攻击时，有特殊的抵抗效果。同时所有技能获得大幅度提升。当耶梦加得受到一定程度的攻击后异化结束恢复本体。\n\n<color=#DC143C>随着战斗时间的增长，耶梦加得变得越发强大，同时「毒液」效果持续时间将会获得延长。</color>",
		"UpHeroTagIDS": [
			3,
			8
		],
		"RecommendHeros": [
			{
				"Hero": 37,
				"DescId": 2064
			},
			{
				"Hero": 27,
				"DescId": 2060
			},
			{
				"Hero": 34,
				"DescId": 2061
			},
			{
				"Hero": 60,
				"DescId": 2062
			},
			{
				"Hero": 88,
				"DescId": 2063
			},
			{
				"Hero": 29,
				"DescId": 2065
			},
			{
				"Hero": 38,
				"DescId": 2066
			},
			{
				"Hero": 52,
				"DescId": 2067
			}
		],
		"UpSkillID": 42299,
		"UpSkillDesc": "使用<color=red>优势阵营</color>英雄时，可获得<color=red>100%</color>的全属性加成",
		"BehavioralCycle": [
			{
				"Boss": 485,
				"BehavioralDesc": 6
			},
			{
				"Boss": 486,
				"BehavioralDesc": 7
			},
			{
				"Boss": 487,
				"BehavioralDesc": 6
			}
		],
		"BossImage": "UI/AncientCall_ABS/BossBanner/Banner_BOSS_2.png"
	},
	"5": {
		"ID": 5,
		"Name": "福金&雾尼",
		"Desc": "「思想」与「记忆」之鸦，它们的「私语」会引发生灵对自我的怀疑并陷入意识的抗争内不可自拔。\n\n作为曾经远古众神在人间的耳目，福金&雾尼获得了远古众神的赐福拥有了「远古的庇护」。",
		"MonsterLevel": 70,
		"BattleID": 41003,
		"RecordRewardID": 5,
		"MissionID": [
			40401,
			40402,
			40403,
			40404,
			40405,
			40406,
			40407,
			40408,
			40409,
			40410,
			40411
		],
		"AchievementID": [
			901,
			902,
			903,
			904,
			905,
			906
		],
		"BossSkillList": [
			40713,
			40714,
			40715,
			40716
		],
		"BossProcess": "福金&雾尼会不停通过<color=#DC143C>「私语」</color>使得敌人陷入强力的弱化状态。并且<color=#DC143C>「远古的庇护」</color>会在每回合都赋予它免疫一种伤害类型的能力。\n\n福金&雾尼拥有强大的单体攻击能力「飞扑」，被「飞扑」击中的英雄将会陷入<color=#DC143C>1回合无法行动</color>的状态。\n\n当福金&雾尼受到一定程度的攻击后会分裂为「思想」和「记忆」两部分，且同时具有<color=#DC143C>「远古的庇护」</color>。\n\n当「思想」和「记忆」被消灭后它们将会重新融合为福金&雾尼。<color=#DC143C>随着战斗时间的增长，福金&雾尼将会变得愈发强大。</color>",
		"UpHeroTagIDS": [
			1,
			2
		],
		"RecommendHeros": [
			{
				"Hero": 11,
				"DescId": 2070
			},
			{
				"Hero": 60,
				"DescId": 2071
			},
			{
				"Hero": 56,
				"DescId": 2072
			},
			{
				"Hero": 5,
				"DescId": 2073
			},
			{
				"Hero": 55,
				"DescId": 2074
			},
			{
				"Hero": 15,
				"DescId": 2075
			},
			{
				"Hero": 10,
				"DescId": 2077
			},
			{
				"Hero": 88,
				"DescId": 2076
			}
		],
		"UpSkillID": 42299,
		"UpSkillDesc": "使用<color=red>优势阵营</color>英雄时，可获得<color=red>100%</color>的全属性加成",
		"BehavioralCycle": [
			{
				"Boss": 481,
				"BehavioralDesc": 8
			},
			{
				"Boss": 484,
				"BehavioralDesc": 9
			}
		],
		"BossImage": "UI/AncientCall_ABS/BossBanner/Banner_BOSS_4.png"
	}
}