{
	"1": {
		"ID": 1,
		"LoseConditionType": "BattleLoseConditionType_ActorDie",
		"Param1": [
			1014
		],
		"Param2": [
			0
		]
	},
	"2": {
		"ID": 2,
		"LoseConditionType": "BattleLoseConditionType_ActorReachPosition",
		"Param1": [
			0
		],
		"Param2": [
			0
		]
	},
	"3": {
		"ID": 3,
		"LoseConditionType": "BattleLoseConditionType_None",
		"Param1": [
			0
		],
		"Param2": [
			0
		]
	},
	"4": {
		"ID": 4,
		"LoseConditionType": "BattleLoseConditionType_ActorDie",
		"Param1": [
			1
		]
	},
	"5": {
		"ID": 5,
		"LoseConditionType": "BattleLoseConditionType_ActorDie",
		"Param1": [
			4
		]
	},
	"6": {
		"ID": 6,
		"LoseConditionType": "BattleLoseConditionType_ActorDie",
		"Param1": [
			1505
		]
	},
	"7": {
		"ID": 7,
		"LoseConditionType": "BattleLoseConditionType_ActorDie",
		"Param1": [
			1509
		]
	},
	"8": {
		"ID": 8,
		"LoseConditionType": "BattleLoseConditionType_ActorDie",
		"Param1": [
			1518
		]
	},
	"9": {
		"ID": 9,
		"LoseConditionType": "BattleLoseConditionType_ActorDie",
		"Param1": [
			1523
		]
	},
	"10": {
		"ID": 10,
		"LoseConditionType": "BattleLoseConditionType_ActorDie",
		"Param1": [
			1526
		]
	},
	"11": {
		"ID": 11,
		"LoseConditionType": "BattleLoseConditionType_ActorDie",
		"Param1": [
			1527
		]
	},
	"12": {
		"ID": 12,
		"LoseConditionType": "BattleLoseConditionType_ActorDie",
		"Param1": [
			1532
		]
	},
	"13": {
		"ID": 13,
		"LoseConditionType": "BattleLoseConditionType_NpcDieCount",
		"Param2": [
			3
		]
	},
	"14": {
		"ID": 14,
		"LoseConditionType": "BattleLoseConditionType_ActorReachPosition",
		"Param2": [
			1
		],
		"Param3": [
			{
				"X": 6,
				"Y": 0
			},
			{
				"X": 7,
				"Y": 0
			},
			{
				"X": 8,
				"Y": 0
			}
		]
	},
	"15": {
		"ID": 15,
		"LoseConditionType": "BattleLoseConditionType_ActorDie",
		"Param1": [
			1506
		]
	},
	"16": {
		"ID": 16,
		"LoseConditionType": "BattleLoseConditionType_ActorDie",
		"Param1": [
			1
		]
	},
	"17": {
		"ID": 17,
		"LoseConditionType": "BattleLoseConditionType_DieCount",
		"Param2": [
			1
		]
	},
	"18": {
		"ID": 18,
		"LoseConditionType": "BattleLoseConditionType_ActorDie",
		"Param1": [
			3507
		]
	},
	"19": {
		"ID": 19,
		"LoseConditionType": "BattleLoseConditionType_PlayerDieCount",
		"Param2": [
			1
		]
	},
	"20": {
		"ID": 20,
		"LoseConditionType": "BattleLoseConditionType_NpcDieCount",
		"Param1": [
			1513
		],
		"Param2": [
			1
		]
	},
	"21": {
		"ID": 21,
		"LoseConditionType": "BattleLoseConditionType_NpcDieCount",
		"Param2": [
			3
		]
	},
	"22": {
		"ID": 22,
		"LoseConditionType": "BattleLoseConditionType_ActorDie",
		"Param1": [
			1504
		]
	},
	"23": {
		"ID": 23,
		"LoseConditionType": "BattleLoseConditionType_ActorDie",
		"Param1": [
			1544
		]
	},
	"24": {
		"ID": 24,
		"LoseConditionType": "BattleLoseConditionType_ActorDie",
		"Param1": [
			1512
		]
	},
	"25": {
		"ID": 25,
		"LoseConditionType": "BattleLoseConditionType_ActorReachPosition",
		"Param1": [
			300
		],
		"Param3": [
			{
				"X": 0,
				"Y": 15
			}
		]
	},
	"26": {
		"ID": 26,
		"LoseConditionType": "BattleLoseConditionType_ActorDie",
		"Param1": [
			3506
		]
	},
	"27": {
		"ID": 27,
		"LoseConditionType": "BattleLoseConditionType_ActorDie",
		"Param1": [
			3907
		]
	},
	"28": {
		"ID": 28,
		"LoseConditionType": "BattleLoseConditionType_ActorDie",
		"Param1": [
			3906
		]
	},
	"29": {
		"ID": 29,
		"LoseConditionType": "BattleLoseConditionType_ActorDie",
		"Param1": [
			385
		]
	},
	"30": {
		"ID": 30,
		"LoseConditionType": "BattleLoseConditionType_ActorDie",
		"Param1": [
			401
		]
	},
	"31": {
		"ID": 31,
		"LoseConditionType": "BattleLoseConditionType_NpcDieCount",
		"Param1": [
			3507
		],
		"Param2": [
			3
		]
	},
	"32": {
		"ID": 32,
		"LoseConditionType": "BattleLoseConditionType_ActorDie",
		"Param1": [
			3506
		]
	},
	"33": {
		"ID": 33,
		"LoseConditionType": "BattleLoseConditionType_ActorDie",
		"Param1": [
			401
		]
	},
	"34": {
		"ID": 34,
		"LoseConditionType": "BattleLoseConditionType_ActorDie",
		"Param1": [
			402
		]
	},
	"35": {
		"ID": 35,
		"LoseConditionType": "BattleLoseConditionType_ActorDie",
		"Param1": [
			402
		]
	},
	"36": {
		"ID": 36,
		"LoseConditionType": "BattleLoseConditionType_ActorDie",
		"Param1": [
			403
		]
	},
	"37": {
		"ID": 37,
		"LoseConditionType": "BattleLoseConditionType_ActorDie",
		"Param1": [
			403
		]
	},
	"38": {
		"ID": 38,
		"LoseConditionType": "BattleLoseConditionType_ActorDie",
		"Param1": [
			403
		]
	},
	"39": {
		"ID": 39,
		"LoseConditionType": "BattleLoseConditionType_ActorReachPosition",
		"Param2": [
			1
		],
		"Param3": [
			{
				"X": 9,
				"Y": 3
			},
			{
				"X": 10,
				"Y": 3
			},
			{
				"X": 11,
				"Y": 3
			},
			{
				"X": 12,
				"Y": 3
			},
			{
				"X": 9,
				"Y": 4
			},
			{
				"X": 10,
				"Y": 4
			},
			{
				"X": 11,
				"Y": 4
			},
			{
				"X": 12,
				"Y": 4
			}
		]
	},
	"40": {
		"ID": 40,
		"LoseConditionType": "BattleLoseConditionType_ActorDie",
		"Param1": [
			1005
		]
	},
	"41": {
		"ID": 41,
		"LoseConditionType": "BattleLoseConditionType_ActorDie",
		"Param1": [
			1028
		]
	},
	"42": {
		"ID": 42,
		"LoseConditionType": "BattleLoseConditionType_ActorDie",
		"Param1": [
			1051
		]
	},
	"43": {
		"ID": 43,
		"LoseConditionType": "BattleLoseConditionType_ActorDie",
		"Param1": [
			1546
		]
	},
	"44": {
		"ID": 44,
		"LoseConditionType": "BattleLoseConditionType_ActorDie",
		"Param1": [
			1547
		]
	},
	"45": {
		"ID": 45,
		"LoseConditionType": "BattleLoseConditionType_ActorDie",
		"Param1": [
			1548
		]
	},
	"46": {
		"ID": 46,
		"LoseConditionType": "BattleLoseConditionType_ActorDie",
		"Param1": [
			6
		]
	},
	"47": {
		"ID": 47,
		"LoseConditionType": "BattleLoseConditionType_ActorDie",
		"Param1": [
			904
		]
	},
	"48": {
		"ID": 48,
		"LoseConditionType": "BattleLoseConditionType_ActorDie",
		"Param1": [
			7
		]
	},
	"49": {
		"ID": 49,
		"LoseConditionType": "BattleLoseConditionType_NpcDieCount",
		"Param2": [
			1
		]
	},
	"50": {
		"ID": 50,
		"LoseConditionType": "BattleLoseConditionType_ActorDie",
		"Param1": [
			12
		]
	},
	"51": {
		"ID": 51,
		"LoseConditionType": "BattleLoseConditionType_ActorReachPosition",
		"Param2": [
			1
		],
		"Param3": [
			{
				"X": 3,
				"Y": 0
			},
			{
				"X": 4,
				"Y": 0
			},
			{
				"X": 5,
				"Y": 0
			},
			{
				"X": 6,
				"Y": 0
			}
		]
	},
	"52": {
		"ID": 52,
		"LoseConditionType": "BattleLoseConditionType_ActorDie",
		"Param1": [
			13
		]
	},
	"53": {
		"ID": 53,
		"LoseConditionType": "BattleLoseConditionType_ActorDie",
		"Param1": [
			1045
		]
	},
	"54": {
		"ID": 54,
		"LoseConditionType": "BattleLoseConditionType_NpcDieCount",
		"Param2": [
			3
		]
	},
	"55": {
		"ID": 55,
		"LoseConditionType": "BattleLoseConditionType_ActorDie",
		"Param1": [
			17
		]
	},
	"56": {
		"ID": 56,
		"LoseConditionType": "BattleLoseConditionType_ActorDie",
		"Param1": [
			1546
		]
	},
	"57": {
		"ID": 57,
		"LoseConditionType": "BattleLoseConditionType_ActorDie",
		"Param1": [
			217
		]
	},
	"58": {
		"ID": 58,
		"LoseConditionType": "BattleLoseConditionType_ActorDie",
		"Param1": [
			19
		]
	},
	"59": {
		"ID": 59,
		"LoseConditionType": "BattleLoseConditionType_ActorReachPosition",
		"Param1": [
			912
		],
		"Param3": [
			{
				"X": 0,
				"Y": 0
			},
			{
				"X": 1,
				"Y": 0
			},
			{
				"X": 2,
				"Y": 0
			},
			{
				"X": 3,
				"Y": 0
			},
			{
				"X": 4,
				"Y": 0
			},
			{
				"X": 5,
				"Y": 0
			},
			{
				"X": 6,
				"Y": 0
			},
			{
				"X": 7,
				"Y": 0
			},
			{
				"X": 8,
				"Y": 0
			},
			{
				"X": 9,
				"Y": 0
			},
			{
				"X": 10,
				"Y": 0
			}
		]
	},
	"60": {
		"ID": 60,
		"LoseConditionType": "BattleLoseConditionType_ActorDie",
		"Param1": [
			21
		]
	},
	"61": {
		"ID": 61,
		"LoseConditionType": "BattleLoseConditionType_ActorDie",
		"Param1": [
			3502
		]
	},
	"62": {
		"ID": 62,
		"LoseConditionType": "BattleLoseConditionType_ActorDie",
		"Param1": [
			3507
		]
	},
	"63": {
		"ID": 63,
		"LoseConditionType": "BattleLoseConditionType_ActorDie",
		"Param1": [
			807
		]
	},
	"64": {
		"ID": 64,
		"LoseConditionType": "BattleLoseConditionType_ActorDie",
		"Param1": [
			1600
		]
	},
	"65": {
		"ID": 65,
		"LoseConditionType": "BattleLoseConditionType_ActorDie",
		"Param1": [
			1601
		]
	},
	"66": {
		"ID": 66,
		"LoseConditionType": "BattleLoseConditionType_ActorDie",
		"Param1": [
			1367
		]
	},
	"67": {
		"ID": 67,
		"LoseConditionType": "BattleLoseConditionType_ActorDie",
		"Param1": [
			1368
		]
	},
	"68": {
		"ID": 68,
		"LoseConditionType": "BattleLoseConditionType_ActorDie",
		"Param1": [
			1369
		]
	},
	"69": {
		"ID": 69,
		"LoseConditionType": "BattleLoseConditionType_ActorDie",
		"Param1": [
			1364
		]
	},
	"70": {
		"ID": 70,
		"LoseConditionType": "BattleLoseConditionType_ActorDie",
		"Param1": [
			1365
		]
	},
	"71": {
		"ID": 71,
		"LoseConditionType": "BattleLoseConditionType_ActorDie",
		"Param1": [
			1366
		]
	},
	"72": {
		"ID": 72,
		"LoseConditionType": "BattleLoseConditionType_ActorDie",
		"Param1": [
			1397
		]
	},
	"73": {
		"ID": 73,
		"LoseConditionType": "BattleLoseConditionType_ActorDie",
		"Param1": [
			1399
		]
	},
	"74": {
		"ID": 74,
		"LoseConditionType": "BattleLoseConditionType_ActorDie",
		"Param1": [
			1400
		]
	},
	"75": {
		"ID": 75,
		"LoseConditionType": "BattleLoseConditionType_NpcDieCount",
		"Param1": [
			1406
		],
		"Param2": [
			3
		]
	},
	"76": {
		"ID": 76,
		"LoseConditionType": "BattleLoseConditionType_PlayerDieCount",
		"Param2": [
			2
		]
	},
	"77": {
		"ID": 77,
		"LoseConditionType": "BattleLoseConditionType_PlayerDieCount",
		"Param2": [
			4
		]
	},
	"78": {
		"ID": 78,
		"LoseConditionType": "BattleLoseConditionType_NpcDieCount",
		"Param1": [
			1407
		],
		"Param2": [
			4
		]
	},
	"79": {
		"ID": 79,
		"LoseConditionType": "BattleLoseConditionType_ActorDie",
		"Param1": [
			1404
		]
	},
	"80": {
		"ID": 80,
		"LoseConditionType": "BattleLoseConditionType_ActorDie",
		"Param1": [
			9374
		]
	},
	"94": {
		"ID": 94,
		"LoseConditionType": "BattleLoseConditionType_ActorDie",
		"Param1": [
			2404
		]
	},
	"95": {
		"ID": 95,
		"LoseConditionType": "BattleLoseConditionType_ActorDie",
		"Param1": [
			2391
		]
	},
	"96": {
		"ID": 96,
		"LoseConditionType": "BattleLoseConditionType_ActorDie",
		"Param1": [
			2397
		]
	},
	"97": {
		"ID": 97,
		"LoseConditionType": "BattleLoseConditionType_ActorDie",
		"Param1": [
			2384
		]
	},
	"98": {
		"ID": 98,
		"LoseConditionType": "BattleLoseConditionType_ActorDie",
		"Param1": [
			2380
		]
	},
	"99": {
		"ID": 99,
		"LoseConditionType": "BattleLoseConditionType_ActorDie",
		"Param1": [
			2393
		]
	},
	"100": {
		"ID": 100,
		"LoseConditionType": "BattleLoseConditionType_EventTrigger",
		"Param1": [
			3634
		]
	},
	"101": {
		"ID": 101,
		"LoseConditionType": "BattleLoseConditionType_EventTrigger",
		"Param1": [
			3654
		]
	},
	"102": {
		"ID": 102,
		"LoseConditionType": "BattleLoseConditionType_PlayerDieCount",
		"Param2": [
			2
		]
	},
	"103": {
		"ID": 103,
		"LoseConditionType": "BattleLoseConditionType_NpcDieCount",
		"Param2": [
			1
		]
	},
	"104": {
		"ID": 104,
		"LoseConditionType": "BattleLoseConditionType_ActorDie",
		"Param1": [
			1505
		]
	},
	"105": {
		"ID": 105,
		"LoseConditionType": "BattleLoseConditionType_PlayerDieCount",
		"Param2": [
			3
		]
	},
	"106": {
		"ID": 106,
		"LoseConditionType": "BattleLoseConditionType_ActorDie",
		"Param1": [
			9472
		]
	},
	"107": {
		"ID": 107,
		"LoseConditionType": "BattleLoseConditionType_ActorDie",
		"Param1": [
			9476
		]
	},
	"108": {
		"ID": 108,
		"LoseConditionType": "BattleLoseConditionType_ActorDie",
		"Param1": [
			79
		]
	},
	"109": {
		"ID": 109,
		"LoseConditionType": "BattleLoseConditionType_ActorDie",
		"Param1": [
			9506
		]
	},
	"110": {
		"ID": 110,
		"LoseConditionType": "BattleLoseConditionType_ActorDie",
		"Param1": [
			9570
		]
	},
	"111": {
		"ID": 111,
		"LoseConditionType": "BattleLoseConditionType_ActorDie",
		"Param1": [
			9509
		]
	},
	"112": {
		"ID": 112,
		"LoseConditionType": "BattleLoseConditionType_ActorDie",
		"Param1": [
			82
		]
	},
	"113": {
		"ID": 113,
		"LoseConditionType": "BattleLoseConditionType_ActorDie",
		"Param1": [
			9520
		]
	},
	"114": {
		"ID": 114,
		"LoseConditionType": "BattleLoseConditionType_ActorDie",
		"Param1": [
			9512
		]
	},
	"115": {
		"ID": 115,
		"LoseConditionType": "BattleLoseConditionType_ActorDie",
		"Param1": [
			9511
		]
	},
	"116": {
		"ID": 116,
		"LoseConditionType": "BattleLoseConditionType_ActorDie",
		"Param1": [
			9593
		]
	},
	"117": {
		"ID": 117,
		"LoseConditionType": "BattleLoseConditionType_ActorDie",
		"Param1": [
			9594
		]
	},
	"118": {
		"ID": 118,
		"LoseConditionType": "BattleLoseConditionType_ActorDie",
		"Param1": [
			9604
		]
	},
	"119": {
		"ID": 119,
		"LoseConditionType": "BattleLoseConditionType_ActorDie",
		"Param1": [
			9615
		]
	},
	"120": {
		"ID": 120,
		"LoseConditionType": "BattleLoseConditionType_ActorDie",
		"Param1": [
			9661
		]
	},
	"121": {
		"ID": 121,
		"LoseConditionType": "BattleLoseConditionType_ActorDie",
		"Param1": [
			9662
		]
	},
	"122": {
		"ID": 122,
		"LoseConditionType": "BattleLoseConditionType_ActorDie",
		"Param1": [
			9663
		]
	},
	"123": {
		"ID": 123,
		"LoseConditionType": "BattleLoseConditionType_ActorDie",
		"Param1": [
			9896
		]
	},
	"124": {
		"ID": 124,
		"LoseConditionType": "BattleLoseConditionType_ActorDie",
		"Param1": [
			9901
		]
	},
	"127": {
		"ID": 127,
		"LoseConditionType": "BattleLoseConditionType_ActorReachPosition",
		"Param1": [
			4536
		],
		"Param2": [
			1
		],
		"Param3": [
			{
				"X": 0,
				"Y": 0
			},
			{
				"X": 1,
				"Y": 0
			},
			{
				"X": 15,
				"Y": 17
			},
			{
				"X": 16,
				"Y": 17
			}
		]
	},
	"143": {
		"ID": 143,
		"LoseConditionType": "BattleLoseConditionType_ActorDie",
		"Param1": [
			1404
		]
	},
	"156": {
		"ID": 156,
		"LoseConditionType": "BattleLoseConditionType_EventTrigger",
		"Param1": [
			30510
		]
	},
	"157": {
		"ID": 157,
		"LoseConditionType": "BattleLoseConditionType_EventTrigger",
		"Param1": [
			30500
		]
	},
	"348": {
		"ID": 348,
		"LoseConditionType": "BattleLoseConditionType_ActorDie",
		"Param1": [
			1795
		]
	},
	"376": {
		"ID": 376,
		"LoseConditionType": "BattleLoseConditionType_ActorReachPosition",
		"Param1": [
			2764
		],
		"Param3": [
			{
				"X": 19,
				"Y": 5
			},
			{
				"X": 19,
				"Y": 6
			}
		]
	},
	"377": {
		"ID": 377,
		"LoseConditionType": "BattleLoseConditionType_ActorDie",
		"Param1": [
			2764
		]
	},
	"380": {
		"ID": 380,
		"LoseConditionType": "BattleLoseConditionType_ActorDie",
		"Param1": [
			11023
		]
	},
	"800": {
		"ID": 800,
		"LoseConditionType": "BattleLoseConditionType_ActorDie",
		"Param1": [
			85
		]
	},
	"801": {
		"ID": 801,
		"LoseConditionType": "BattleLoseConditionType_ActorDie",
		"Param1": [
			2472
		]
	},
	"802": {
		"ID": 802,
		"LoseConditionType": "BattleLoseConditionType_ActorDie",
		"Param1": [
			2479
		]
	},
	"999": {
		"ID": 999,
		"LoseConditionType": "BattleLoseConditionType_DieAll"
	},
	"1001": {
		"ID": 1001,
		"LoseConditionType": "BattleLoseConditionType_DieCount",
		"Param2": [
			2
		]
	},
	"1002": {
		"ID": 1002,
		"LoseConditionType": "BattleLoseConditionType_ActorDie",
		"Param1": [
			1536
		]
	},
	"1003": {
		"ID": 1003,
		"LoseConditionType": "BattleLoseConditionType_ActorDie",
		"Param1": [
			1540
		]
	},
	"1004": {
		"ID": 1004,
		"LoseConditionType": "BattleLoseConditionType_NpcDieCount",
		"Param1": [
			3507
		],
		"Param2": [
			3
		]
	},
	"1005": {
		"ID": 1005,
		"LoseConditionType": "BattleLoseConditionType_ActorReachPosition",
		"Param1": [
			324
		],
		"Param3": [
			{
				"X": 8,
				"Y": 1
			}
		]
	},
	"1006": {
		"ID": 1006,
		"LoseConditionType": "BattleLoseConditionType_ActorReachPosition",
		"Param1": [
			330
		],
		"Param3": [
			{
				"X": 8,
				"Y": 1
			}
		]
	},
	"1007": {
		"ID": 1007,
		"LoseConditionType": "BattleLoseConditionType_ActorReachPosition",
		"Param2": [
			1
		],
		"Param3": [
			{
				"X": 0,
				"Y": 16
			},
			{
				"X": 1,
				"Y": 16
			},
			{
				"X": 2,
				"Y": 16
			},
			{
				"X": 3,
				"Y": 16
			},
			{
				"X": 4,
				"Y": 16
			},
			{
				"X": 5,
				"Y": 16
			},
			{
				"X": 6,
				"Y": 16
			},
			{
				"X": 7,
				"Y": 16
			},
			{
				"X": 8,
				"Y": 16
			},
			{
				"X": 9,
				"Y": 16
			},
			{
				"X": 10,
				"Y": 16
			},
			{
				"X": 11,
				"Y": 16
			},
			{
				"X": 12,
				"Y": 16
			},
			{
				"X": 13,
				"Y": 16
			},
			{
				"X": 14,
				"Y": 16
			},
			{
				"X": 15,
				"Y": 16
			}
		]
	},
	"1008": {
		"ID": 1008,
		"LoseConditionType": "BattleLoseConditionType_ActorDie",
		"Param1": [
			1541
		]
	},
	"1009": {
		"ID": 1009,
		"LoseConditionType": "BattleLoseConditionType_DieCount",
		"Param2": [
			3
		]
	},
	"1010": {
		"ID": 1010,
		"LoseConditionType": "BattleLoseConditionType_ActorDie",
		"Param1": [
			1375
		]
	},
	"1011": {
		"ID": 1011,
		"LoseConditionType": "BattleLoseConditionType_ActorReachPosition",
		"Param2": [
			1
		],
		"Param3": [
			{
				"X": 0,
				"Y": 0
			},
			{
				"X": 1,
				"Y": 0
			},
			{
				"X": 2,
				"Y": 0
			}
		]
	},
	"1012": {
		"ID": 1012,
		"LoseConditionType": "BattleLoseConditionType_ActorDie",
		"Param1": [
			1380
		]
	},
	"1013": {
		"ID": 1013,
		"LoseConditionType": "BattleLoseConditionType_ActorDie",
		"Param1": [
			1387
		]
	},
	"1014": {
		"ID": 1014,
		"LoseConditionType": "BattleLoseConditionType_NpcDieCount",
		"Param2": [
			5
		]
	},
	"1015": {
		"ID": 1015,
		"LoseConditionType": "BattleLoseConditionType_ActorDie",
		"Param1": [
			1712
		]
	},
	"1016": {
		"ID": 1016,
		"LoseConditionType": "BattleLoseConditionType_ActorDie",
		"Param1": [
			1787
		]
	},
	"1056": {
		"ID": 1056,
		"LoseConditionType": "BattleLoseConditionType_ActorDie",
		"Param1": [
			1919
		]
	},
	"1057": {
		"ID": 1057,
		"LoseConditionType": "BattleLoseConditionType_ActorDie",
		"Param1": [
			1963
		]
	},
	"1058": {
		"ID": 1058,
		"LoseConditionType": "BattleLoseConditionType_ActorDie",
		"Param1": [
			1542
		]
	},
	"1078": {
		"ID": 1078,
		"LoseConditionType": "BattleLoseConditionType_NpcDieCount",
		"Param2": [
			5
		]
	},
	"1079": {
		"ID": 1079,
		"LoseConditionType": "BattleLoseConditionType_ActorDie",
		"Param1": [
			9082
		]
	},
	"1080": {
		"ID": 1080,
		"LoseConditionType": "BattleLoseConditionType_ActorDie",
		"Param1": [
			9890
		]
	},
	"1081": {
		"ID": 1081,
		"LoseConditionType": "BattleLoseConditionType_ActorDie",
		"Param1": [
			9892
		]
	},
	"1082": {
		"ID": 1082,
		"LoseConditionType": "BattleLoseConditionType_ActorDie",
		"Param1": [
			9895
		]
	},
	"1999": {
		"ID": 1999,
		"LoseConditionType": "BattleLoseConditionType_PlayerDieCount",
		"Param2": [
			1
		]
	},
	"525": {
		"ID": 525,
		"LoseConditionType": "BattleLoseConditionType_ActorReachPosition",
		"Param1": [
			350
		],
		"Param3": [
			{
				"X": 0,
				"Y": 15
			}
		]
	},
	"508": {
		"ID": 508,
		"LoseConditionType": "BattleLoseConditionType_ActorDie",
		"Param1": [
			1568
		]
	},
	"509": {
		"ID": 509,
		"LoseConditionType": "BattleLoseConditionType_ActorDie",
		"Param1": [
			1573
		]
	},
	"510": {
		"ID": 510,
		"LoseConditionType": "BattleLoseConditionType_ActorDie",
		"Param1": [
			1576
		]
	},
	"511": {
		"ID": 511,
		"LoseConditionType": "BattleLoseConditionType_ActorDie",
		"Param1": [
			1577
		]
	},
	"512": {
		"ID": 512,
		"LoseConditionType": "BattleLoseConditionType_ActorDie",
		"Param1": [
			1582
		]
	},
	"513": {
		"ID": 513,
		"LoseConditionType": "BattleLoseConditionType_ActorDie",
		"Param1": [
			1504
		]
	},
	"514": {
		"ID": 514,
		"LoseConditionType": "BattleLoseConditionType_ActorDie",
		"Param1": [
			1505
		]
	},
	"1471": {
		"ID": 1471,
		"LoseConditionType": "BattleLoseConditionType_ActorDie",
		"Param1": [
			9431
		]
	},
	"1472": {
		"ID": 1472,
		"LoseConditionType": "BattleLoseConditionType_ActorReachPosition",
		"Param2": [
			1
		],
		"Param3": [
			{
				"X": 7,
				"Y": 12
			},
			{
				"X": 8,
				"Y": 12
			},
			{
				"X": 7,
				"Y": 13
			},
			{
				"X": 8,
				"Y": 13
			},
			{
				"X": 7,
				"Y": 14
			},
			{
				"X": 8,
				"Y": 14
			}
		]
	},
	"1502": {
		"ID": 1502,
		"LoseConditionType": "BattleLoseConditionType_ActorDie",
		"Param1": [
			1586
		]
	},
	"1503": {
		"ID": 1503,
		"LoseConditionType": "BattleLoseConditionType_ActorDie",
		"Param1": [
			1590
		]
	},
	"1504": {
		"ID": 1504,
		"LoseConditionType": "BattleLoseConditionType_NpcDieCount",
		"Param1": [
			3507
		],
		"Param2": [
			3
		]
	},
	"1505": {
		"ID": 1505,
		"LoseConditionType": "BattleLoseConditionType_ActorReachPosition",
		"Param1": [
			374
		],
		"Param3": [
			{
				"X": 8,
				"Y": 1
			}
		]
	},
	"1506": {
		"ID": 1506,
		"LoseConditionType": "BattleLoseConditionType_ActorReachPosition",
		"Param1": [
			380
		],
		"Param3": [
			{
				"X": 8,
				"Y": 1
			}
		]
	},
	"1507": {
		"ID": 1507,
		"LoseConditionType": "BattleLoseConditionType_ActorReachPosition",
		"Param2": [
			1
		],
		"Param3": [
			{
				"X": 0,
				"Y": 16
			},
			{
				"X": 1,
				"Y": 16
			},
			{
				"X": 2,
				"Y": 16
			},
			{
				"X": 3,
				"Y": 16
			},
			{
				"X": 4,
				"Y": 16
			},
			{
				"X": 5,
				"Y": 16
			},
			{
				"X": 6,
				"Y": 16
			},
			{
				"X": 7,
				"Y": 16
			},
			{
				"X": 8,
				"Y": 16
			},
			{
				"X": 9,
				"Y": 16
			},
			{
				"X": 10,
				"Y": 16
			},
			{
				"X": 11,
				"Y": 16
			},
			{
				"X": 12,
				"Y": 16
			},
			{
				"X": 13,
				"Y": 16
			},
			{
				"X": 14,
				"Y": 16
			},
			{
				"X": 15,
				"Y": 16
			}
		]
	},
	"1508": {
		"ID": 1508,
		"LoseConditionType": "BattleLoseConditionType_ActorDie",
		"Param1": [
			1591
		]
	},
	"1510": {
		"ID": 1510,
		"LoseConditionType": "BattleLoseConditionType_ActorDie",
		"Param1": [
			1605
		]
	},
	"1511": {
		"ID": 1511,
		"LoseConditionType": "BattleLoseConditionType_ActorReachPosition",
		"Param2": [
			1
		],
		"Param3": [
			{
				"X": 0,
				"Y": 0
			},
			{
				"X": 1,
				"Y": 0
			},
			{
				"X": 2,
				"Y": 0
			}
		]
	},
	"1512": {
		"ID": 1512,
		"LoseConditionType": "BattleLoseConditionType_ActorDie",
		"Param1": [
			1610
		]
	},
	"1513": {
		"ID": 1513,
		"LoseConditionType": "BattleLoseConditionType_ActorDie",
		"Param1": [
			1617
		]
	},
	"1514": {
		"ID": 1514,
		"LoseConditionType": "BattleLoseConditionType_NpcDieCount",
		"Param2": [
			5
		]
	},
	"1515": {
		"ID": 1515,
		"LoseConditionType": "BattleLoseConditionType_ActorDie",
		"Param1": [
			1731
		]
	},
	"1516": {
		"ID": 1516,
		"LoseConditionType": "BattleLoseConditionType_ActorDie",
		"Param1": [
			1788
		]
	},
	"1517": {
		"ID": 1517,
		"LoseConditionType": "BattleLoseConditionType_ActorDie",
		"Param1": [
			1592
		]
	},
	"1556": {
		"ID": 1556,
		"LoseConditionType": "BattleLoseConditionType_ActorDie",
		"Param1": [
			1933
		]
	},
	"1557": {
		"ID": 1557,
		"LoseConditionType": "BattleLoseConditionType_ActorDie",
		"Param1": [
			1964
		]
	},
	"1579": {
		"ID": 1579,
		"LoseConditionType": "BattleLoseConditionType_ActorDie",
		"Param1": [
			9091
		]
	},
	"2360": {
		"ID": 2360,
		"LoseConditionType": "BattleLoseConditionType_ActorDie",
		"Param1": [
			1593
		]
	},
	"2390": {
		"ID": 2390,
		"LoseConditionType": "BattleLoseConditionType_NpcDieCount",
		"Param2": [
			2
		]
	},
	"2440": {
		"ID": 2440,
		"LoseConditionType": "BattleLoseConditionType_NpcDieCount",
		"Param2": [
			1
		]
	},
	"2450": {
		"ID": 2450,
		"LoseConditionType": "BattleLoseConditionType_ActorDie",
		"Param1": [
			1549
		]
	},
	"2460": {
		"ID": 2460,
		"LoseConditionType": "BattleLoseConditionType_ActorDie",
		"Param1": [
			1550
		]
	},
	"2470": {
		"ID": 2470,
		"LoseConditionType": "BattleLoseConditionType_ActorDie",
		"Param1": [
			1551
		]
	},
	"2480": {
		"ID": 2480,
		"LoseConditionType": "BattleLoseConditionType_ActorDie",
		"Param1": [
			1546
		]
	},
	"2490": {
		"ID": 2490,
		"LoseConditionType": "BattleLoseConditionType_ActorDie",
		"Param1": [
			1547
		]
	},
	"2500": {
		"ID": 2500,
		"LoseConditionType": "BattleLoseConditionType_ActorDie",
		"Param1": [
			1552
		]
	},
	"2510": {
		"ID": 2510,
		"LoseConditionType": "BattleLoseConditionType_ActorDie",
		"Param1": [
			1553
		]
	},
	"2520": {
		"ID": 2520,
		"LoseConditionType": "BattleLoseConditionType_ActorDie",
		"Param1": [
			1554
		]
	},
	"2530": {
		"ID": 2530,
		"LoseConditionType": "BattleLoseConditionType_ActorDie",
		"Param1": [
			1555
		]
	},
	"2531": {
		"ID": 2531,
		"LoseConditionType": "BattleLoseConditionType_ActorDie",
		"Param1": [
			5517
		]
	},
	"2640": {
		"ID": 2640,
		"LoseConditionType": "BattleLoseConditionType_ActorReachPosition",
		"Param2": [
			1
		],
		"Param3": [
			{
				"X": 7,
				"Y": 2
			}
		]
	},
	"2730": {
		"ID": 2730,
		"LoseConditionType": "BattleLoseConditionType_ActorReachPosition",
		"Param2": [
			1
		],
		"Param3": [
			{
				"X": 14,
				"Y": 5
			}
		]
	},
	"2800": {
		"ID": 2800,
		"LoseConditionType": "BattleLoseConditionType_ActorReachPosition",
		"Param2": [
			1
		],
		"Param3": [
			{
				"X": 13,
				"Y": 1
			}
		]
	},
	"2810": {
		"ID": 2810,
		"LoseConditionType": "BattleLoseConditionType_ActorReachPosition",
		"Param2": [
			1
		],
		"Param3": [
			{
				"X": 10,
				"Y": 2
			}
		]
	},
	"2830": {
		"ID": 2830,
		"LoseConditionType": "BattleLoseConditionType_NpcDieCount",
		"Param2": [
			1
		]
	},
	"2850": {
		"ID": 2850,
		"LoseConditionType": "BattleLoseConditionType_NpcDieCount",
		"Param2": [
			1
		]
	},
	"2855": {
		"ID": 2855,
		"LoseConditionType": "BattleLoseConditionType_ActorDie",
		"Param1": [
			3907
		]
	},
	"2865": {
		"ID": 2865,
		"LoseConditionType": "BattleLoseConditionType_NpcDieCount",
		"Param2": [
			2
		]
	},
	"2870": {
		"ID": 2870,
		"LoseConditionType": "BattleLoseConditionType_NpcDieCount",
		"Param2": [
			1
		]
	},
	"2875": {
		"ID": 2875,
		"LoseConditionType": "BattleLoseConditionType_NpcDieCount",
		"Param2": [
			3
		]
	},
	"2880": {
		"ID": 2880,
		"LoseConditionType": "BattleLoseConditionType_NpcDieCount",
		"Param2": [
			3
		]
	},
	"2885": {
		"ID": 2885,
		"LoseConditionType": "BattleLoseConditionType_NpcDieCount",
		"Param2": [
			1
		]
	},
	"2905": {
		"ID": 2905,
		"LoseConditionType": "BattleLoseConditionType_ActorReachPosition",
		"Param2": [
			1
		],
		"Param3": [
			{
				"X": 13,
				"Y": 6
			}
		]
	},
	"2915": {
		"ID": 2915,
		"LoseConditionType": "BattleLoseConditionType_ActorReachPosition",
		"Param2": [
			1
		],
		"Param3": [
			{
				"X": 8,
				"Y": 1
			}
		]
	},
	"3000": {
		"ID": 3000,
		"LoseConditionType": "BattleLoseConditionType_ActorDie",
		"Param1": [
			10
		]
	},
	"3001": {
		"ID": 3001,
		"LoseConditionType": "BattleLoseConditionType_ActorDie",
		"Param1": [
			26
		]
	},
	"3002": {
		"ID": 3002,
		"LoseConditionType": "BattleLoseConditionType_ActorDie",
		"Param1": [
			1203
		]
	},
	"3003": {
		"ID": 3003,
		"LoseConditionType": "BattleLoseConditionType_ActorDie",
		"Param1": [
			31
		]
	},
	"3004": {
		"ID": 3004,
		"LoseConditionType": "BattleLoseConditionType_ActorDie",
		"Param1": [
			1134
		]
	},
	"3005": {
		"ID": 3005,
		"LoseConditionType": "BattleLoseConditionType_NpcDieCount",
		"Param1": [
			1136
		],
		"Param2": [
			4
		]
	},
	"3006": {
		"ID": 3006,
		"LoseConditionType": "BattleLoseConditionType_ActorDie",
		"Param1": [
			1145
		]
	},
	"3007": {
		"ID": 3007,
		"LoseConditionType": "BattleLoseConditionType_ActorDie",
		"Param1": [
			1146
		]
	},
	"3008": {
		"ID": 3008,
		"LoseConditionType": "BattleLoseConditionType_ActorDie",
		"Param1": [
			1147
		]
	},
	"3009": {
		"ID": 3009,
		"LoseConditionType": "BattleLoseConditionType_ActorDie",
		"Param1": [
			34
		]
	},
	"3010": {
		"ID": 3010,
		"LoseConditionType": "BattleLoseConditionType_ActorDie",
		"Param1": [
			1203
		]
	},
	"3011": {
		"ID": 3011,
		"LoseConditionType": "BattleLoseConditionType_ActorDie",
		"Param1": [
			1204
		]
	},
	"3012": {
		"ID": 3012,
		"LoseConditionType": "BattleLoseConditionType_ActorDie",
		"Param1": [
			36
		]
	},
	"3013": {
		"ID": 3013,
		"LoseConditionType": "BattleLoseConditionType_ActorDie",
		"Param1": [
			1504
		]
	},
	"3014": {
		"ID": 3014,
		"LoseConditionType": "BattleLoseConditionType_ActorDie",
		"Param1": [
			2148,
			2149,
			2150
		]
	},
	"3015": {
		"ID": 3015,
		"LoseConditionType": "BattleLoseConditionType_ActorDie",
		"Param1": [
			2151,
			2152,
			2153
		]
	},
	"3016": {
		"ID": 3016,
		"LoseConditionType": "BattleLoseConditionType_ActorDie",
		"Param1": [
			2137
		]
	},
	"3017": {
		"ID": 3017,
		"LoseConditionType": "BattleLoseConditionType_ActorDie",
		"Param1": [
			2138
		]
	},
	"3018": {
		"ID": 3018,
		"LoseConditionType": "BattleLoseConditionType_ActorDie",
		"Param1": [
			2124
		]
	},
	"3019": {
		"ID": 3019,
		"LoseConditionType": "BattleLoseConditionType_ActorDie",
		"Param1": [
			49
		]
	},
	"3020": {
		"ID": 3020,
		"LoseConditionType": "BattleLoseConditionType_ActorDie",
		"Param1": [
			2169
		]
	},
	"3021": {
		"ID": 3021,
		"LoseConditionType": "BattleLoseConditionType_ActorDie",
		"Param1": [
			2345
		]
	},
	"3022": {
		"ID": 3022,
		"LoseConditionType": "BattleLoseConditionType_ActorDie",
		"Param1": [
			2352
		]
	},
	"3023": {
		"ID": 3023,
		"LoseConditionType": "BattleLoseConditionType_ActorDie",
		"Param1": [
			2356
		]
	},
	"3024": {
		"ID": 3024,
		"LoseConditionType": "BattleLoseConditionType_ActorDie",
		"Param1": [
			2359
		]
	},
	"3025": {
		"ID": 3025,
		"LoseConditionType": "BattleLoseConditionType_EventTrigger",
		"Param1": [
			120481
		]
	},
	"3026": {
		"ID": 3026,
		"LoseConditionType": "BattleLoseConditionType_EventTrigger",
		"Param1": [
			120511
		]
	},
	"3027": {
		"ID": 3027,
		"LoseConditionType": "BattleLoseConditionType_ActorDie",
		"Param1": [
			2463
		]
	},
	"3028": {
		"ID": 3028,
		"LoseConditionType": "BattleLoseConditionType_ActorDie",
		"Param1": [
			2469
		]
	},
	"3029": {
		"ID": 3029,
		"LoseConditionType": "BattleLoseConditionType_ActorDie",
		"Param1": [
			2647
		]
	},
	"3030": {
		"ID": 3030,
		"LoseConditionType": "BattleLoseConditionType_PlayerDieCount",
		"Param2": [
			1
		]
	},
	"3031": {
		"ID": 3031,
		"LoseConditionType": "BattleLoseConditionType_PlayerDieCount",
		"Param2": [
			2
		]
	},
	"3032": {
		"ID": 3032,
		"LoseConditionType": "BattleLoseConditionType_EventTrigger",
		"Param1": [
			120600
		]
	},
	"3033": {
		"ID": 3033,
		"LoseConditionType": "BattleLoseConditionType_EventTrigger",
		"Param1": [
			120606
		]
	},
	"3034": {
		"ID": 3034,
		"LoseConditionType": "BattleLoseConditionType_ActorDie",
		"Param1": [
			9270
		]
	},
	"3035": {
		"ID": 3035,
		"LoseConditionType": "BattleLoseConditionType_ActorDie",
		"Param1": [
			9219
		]
	},
	"3036": {
		"ID": 3036,
		"LoseConditionType": "BattleLoseConditionType_ActorDie",
		"Param1": [
			9220
		]
	},
	"3037": {
		"ID": 3037,
		"LoseConditionType": "BattleLoseConditionType_ActorDie",
		"Param1": [
			9430
		]
	},
	"3038": {
		"ID": 3038,
		"LoseConditionType": "BattleLoseConditionType_ActorDie",
		"Param1": [
			9443
		]
	},
	"3039": {
		"ID": 3039,
		"LoseConditionType": "BattleLoseConditionType_ActorDie",
		"Param1": [
			9444
		]
	},
	"3040": {
		"ID": 3040,
		"LoseConditionType": "BattleLoseConditionType_PlayerDieCount",
		"Param2": [
			2
		]
	},
	"3041": {
		"ID": 3041,
		"LoseConditionType": "BattleLoseConditionType_PlayerDieCount",
		"Param2": [
			1
		]
	},
	"3042": {
		"ID": 3042,
		"LoseConditionType": "BattleLoseConditionType_ActorDie",
		"Param1": [
			9730
		]
	},
	"3043": {
		"ID": 3043,
		"LoseConditionType": "BattleLoseConditionType_ActorReachPosition",
		"Param1": [
			9946
		],
		"Param3": [
			{
				"X": 5,
				"Y": 12
			}
		]
	},
	"3044": {
		"ID": 3044,
		"LoseConditionType": "BattleLoseConditionType_ActorDie",
		"Param1": [
			9950
		]
	},
	"3045": {
		"ID": 3045,
		"LoseConditionType": "BattleLoseConditionType_PlayerDieCount",
		"Param2": [
			3
		]
	},
	"3101": {
		"ID": 3101,
		"LoseConditionType": "BattleLoseConditionType_ActorDie",
		"Param1": [
			30
		]
	},
	"3102": {
		"ID": 3102,
		"LoseConditionType": "BattleLoseConditionType_ActorReachPosition",
		"Param1": [
			9000
		],
		"Param3": [
			{
				"X": 11,
				"Y": 1
			}
		]
	},
	"3103": {
		"ID": 3103,
		"LoseConditionType": "BattleLoseConditionType_ActorReachPosition",
		"Param1": [
			9023
		],
		"Param3": [
			{
				"X": 11,
				"Y": 1
			}
		]
	},
	"3104": {
		"ID": 3104,
		"LoseConditionType": "BattleLoseConditionType_ActorDie",
		"Param1": [
			9241,
			57
		]
	},
	"3105": {
		"ID": 3105,
		"LoseConditionType": "BattleLoseConditionType_ActorDie",
		"Param1": [
			9247,
			57
		]
	},
	"3106": {
		"ID": 3106,
		"LoseConditionType": "BattleLoseConditionType_ActorDie",
		"Param1": [
			57
		]
	},
	"3107": {
		"ID": 3107,
		"LoseConditionType": "BattleLoseConditionType_ActorReachPosition",
		"Param1": [
			9260,
			9261
		],
		"Param3": [
			{
				"X": 0,
				"Y": 0
			},
			{
				"X": 1,
				"Y": 0
			},
			{
				"X": 0,
				"Y": 1
			}
		]
	},
	"3108": {
		"ID": 3108,
		"LoseConditionType": "BattleLoseConditionType_EventTrigger",
		"Param1": [
			500944
		]
	},
	"3109": {
		"ID": 3109,
		"LoseConditionType": "BattleLoseConditionType_ActorReachPosition",
		"Param1": [
			2868
		],
		"Param3": [
			{
				"X": 9,
				"Y": 3
			}
		]
	},
	"3110": {
		"ID": 3110,
		"LoseConditionType": "BattleLoseConditionType_ActorDie",
		"Param1": [
			9499,
			81
		]
	},
	"3111": {
		"ID": 3111,
		"LoseConditionType": "BattleLoseConditionType_ActorDie",
		"Param1": [
			81
		]
	},
	"3112": {
		"ID": 3112,
		"LoseConditionType": "BattleLoseConditionType_ActorDie",
		"Param1": [
			9618
		]
	},
	"3113": {
		"ID": 3113,
		"LoseConditionType": "BattleLoseConditionType_ActorDie",
		"Param1": [
			9621
		]
	},
	"3114": {
		"ID": 3114,
		"LoseConditionType": "BattleLoseConditionType_DieCount",
		"Param2": [
			1
		]
	},
	"3115": {
		"ID": 3115,
		"LoseConditionType": "BattleLoseConditionType_ActorDie",
		"Param1": [
			9649,
			9650,
			9651,
			9652
		]
	},
	"3116": {
		"ID": 3116,
		"LoseConditionType": "BattleLoseConditionType_ActorDie",
		"Param1": [
			89
		]
	},
	"3117": {
		"ID": 3117,
		"LoseConditionType": "BattleLoseConditionType_ActorReachPosition",
		"Param1": [
			9856
		],
		"Param3": [
			{
				"X": 8,
				"Y": 1
			}
		]
	},
	"3118": {
		"ID": 3118,
		"LoseConditionType": "BattleLoseConditionType_ActorDie",
		"Param1": [
			9874
		]
	},
	"3119": {
		"ID": 3119,
		"LoseConditionType": "BattleLoseConditionType_ActorDie",
		"Param1": [
			9909
		]
	},
	"3120": {
		"ID": 3120,
		"LoseConditionType": "BattleLoseConditionType_ActorDie",
		"Param1": [
			9914
		]
	},
	"3121": {
		"ID": 3121,
		"LoseConditionType": "BattleLoseConditionType_ActorDie",
		"Param1": [
			9915
		]
	},
	"3122": {
		"ID": 3122,
		"LoseConditionType": "BattleLoseConditionType_ActorDie",
		"Param1": [
			84
		]
	},
	"3123": {
		"ID": 3123,
		"LoseConditionType": "BattleLoseConditionType_ActorDie",
		"Param1": [
			83
		]
	},
	"5011": {
		"ID": 5011,
		"LoseConditionType": "BattleLoseConditionType_ActorReachPosition",
		"Param1": [
			2885
		],
		"Param2": [
			1
		],
		"Param3": [
			{
				"X": 17,
				"Y": 7
			},
			{
				"X": 18,
				"Y": 7
			},
			{
				"X": 17,
				"Y": 8
			},
			{
				"X": 18,
				"Y": 8
			}
		]
	},
	"5012": {
		"ID": 5012,
		"LoseConditionType": "BattleLoseConditionType_ActorReachPosition",
		"Param1": [
			2886
		],
		"Param2": [
			1
		],
		"Param3": [
			{
				"X": 17,
				"Y": 7
			},
			{
				"X": 18,
				"Y": 7
			},
			{
				"X": 17,
				"Y": 8
			},
			{
				"X": 18,
				"Y": 8
			}
		]
	},
	"5013": {
		"ID": 5013,
		"LoseConditionType": "BattleLoseConditionType_ActorReachPosition",
		"Param1": [
			2887
		],
		"Param2": [
			1
		],
		"Param3": [
			{
				"X": 17,
				"Y": 7
			},
			{
				"X": 18,
				"Y": 7
			},
			{
				"X": 17,
				"Y": 8
			},
			{
				"X": 18,
				"Y": 8
			}
		]
	},
	"5014": {
		"ID": 5014,
		"LoseConditionType": "BattleLoseConditionType_ActorReachPosition",
		"Param1": [
			2888
		],
		"Param2": [
			1
		],
		"Param3": [
			{
				"X": 17,
				"Y": 7
			},
			{
				"X": 18,
				"Y": 7
			},
			{
				"X": 17,
				"Y": 8
			},
			{
				"X": 18,
				"Y": 8
			}
		]
	},
	"5015": {
		"ID": 5015,
		"LoseConditionType": "BattleLoseConditionType_ActorDie",
		"Param1": [
			2896
		]
	},
	"5016": {
		"ID": 5016,
		"LoseConditionType": "BattleLoseConditionType_ActorDie",
		"Param1": [
			2897
		]
	},
	"5020": {
		"ID": 5020,
		"LoseConditionType": "BattleLoseConditionType_EventTrigger",
		"Param1": [
			600561
		]
	},
	"6021": {
		"ID": 6021,
		"LoseConditionType": "BattleLoseConditionType_ActorDie",
		"Param1": [
			1051
		]
	},
	"6102": {
		"ID": 6102,
		"LoseConditionType": "BattleLoseConditionType_NpcDieCount",
		"Param2": [
			3
		]
	},
	"6601": {
		"ID": 6601,
		"LoseConditionType": "BattleLoseConditionType_ActorDie",
		"Param1": [
			2431
		]
	},
	"6602": {
		"ID": 6602,
		"LoseConditionType": "BattleLoseConditionType_ActorDie",
		"Param1": [
			2432
		]
	},
	"6801": {
		"ID": 6801,
		"LoseConditionType": "BattleLoseConditionType_ActorDie",
		"Param1": [
			2688
		]
	},
	"6821": {
		"ID": 6821,
		"LoseConditionType": "BattleLoseConditionType_ActorDie",
		"Param1": [
			2608
		]
	},
	"6825": {
		"ID": 6825,
		"LoseConditionType": "BattleLoseConditionType_ActorDie",
		"Param1": [
			2624
		]
	},
	"6828": {
		"ID": 6828,
		"LoseConditionType": "BattleLoseConditionType_NpcDieCount",
		"Param1": [
			2638
		],
		"Param2": [
			5
		]
	},
	"7070": {
		"ID": 7070,
		"LoseConditionType": "BattleLoseConditionType_ActorDie",
		"Param1": [
			8
		]
	},
	"7072": {
		"ID": 7072,
		"LoseConditionType": "BattleLoseConditionType_NpcDieCount",
		"Param2": [
			2
		]
	},
	"7073": {
		"ID": 7073,
		"LoseConditionType": "BattleLoseConditionType_NpcDieCount",
		"Param1": [
			3906
		],
		"Param2": [
			2
		]
	},
	"7076": {
		"ID": 7076,
		"LoseConditionType": "BattleLoseConditionType_PlayerDieCount",
		"Param2": [
			2
		]
	},
	"7077": {
		"ID": 7077,
		"LoseConditionType": "BattleLoseConditionType_NpcDieCount",
		"Param2": [
			1
		]
	},
	"7080": {
		"ID": 7080,
		"LoseConditionType": "BattleLoseConditionType_ActorDie",
		"Param1": [
			9
		]
	},
	"7083": {
		"ID": 7083,
		"LoseConditionType": "BattleLoseConditionType_EventTrigger",
		"Param1": [
			2835
		]
	},
	"7130": {
		"ID": 7130,
		"LoseConditionType": "BattleLoseConditionType_ActorDie",
		"Param1": [
			14
		]
	},
	"7131": {
		"ID": 7131,
		"LoseConditionType": "BattleLoseConditionType_ActorDie",
		"Param1": [
			1037
		]
	},
	"7132": {
		"ID": 7132,
		"LoseConditionType": "BattleLoseConditionType_ActorDie",
		"Param1": [
			1211
		]
	},
	"7133": {
		"ID": 7133,
		"LoseConditionType": "BattleLoseConditionType_ActorDie",
		"Param1": [
			316
		]
	},
	"7136": {
		"ID": 7136,
		"LoseConditionType": "BattleLoseConditionType_ActorDie",
		"Param1": [
			313
		]
	},
	"7140": {
		"ID": 7140,
		"LoseConditionType": "BattleLoseConditionType_ActorDie",
		"Param1": [
			5
		]
	},
	"7141": {
		"ID": 7141,
		"LoseConditionType": "BattleLoseConditionType_NpcDieCount",
		"Param2": [
			3
		]
	},
	"7142": {
		"ID": 7142,
		"LoseConditionType": "BattleLoseConditionType_NpcDieCount",
		"Param2": [
			1
		]
	},
	"7143": {
		"ID": 7143,
		"LoseConditionType": "BattleLoseConditionType_ActorDie",
		"Param1": [
			1067
		]
	},
	"7144": {
		"ID": 7144,
		"LoseConditionType": "BattleLoseConditionType_NpcDieCount",
		"Param2": [
			4
		]
	},
	"7150": {
		"ID": 7150,
		"LoseConditionType": "BattleLoseConditionType_ActorDie",
		"Param1": [
			15
		]
	},
	"7151": {
		"ID": 7151,
		"LoseConditionType": "BattleLoseConditionType_NpcDieCount",
		"Param1": [
			1370
		],
		"Param2": [
			2
		]
	},
	"7152": {
		"ID": 7152,
		"LoseConditionType": "BattleLoseConditionType_ActorDie",
		"Param1": [
			618
		]
	},
	"7153": {
		"ID": 7153,
		"LoseConditionType": "BattleLoseConditionType_ActorDie",
		"Param1": [
			619
		]
	},
	"7154": {
		"ID": 7154,
		"LoseConditionType": "BattleLoseConditionType_ActorDie",
		"Param1": [
			1371
		]
	},
	"7155": {
		"ID": 7155,
		"LoseConditionType": "BattleLoseConditionType_NpcDieCount",
		"Param2": [
			3
		]
	},
	"7156": {
		"ID": 7156,
		"LoseConditionType": "BattleLoseConditionType_ActorDie",
		"Param1": [
			1217
		]
	},
	"7180": {
		"ID": 7180,
		"LoseConditionType": "BattleLoseConditionType_ActorDie",
		"Param1": [
			18
		]
	},
	"7200": {
		"ID": 7200,
		"LoseConditionType": "BattleLoseConditionType_ActorDie",
		"Param1": [
			16,
			1624
		]
	},
	"7201": {
		"ID": 7201,
		"LoseConditionType": "BattleLoseConditionType_ActorDie",
		"Param1": [
			16,
			1625
		]
	},
	"7202": {
		"ID": 7202,
		"LoseConditionType": "BattleLoseConditionType_ActorDie",
		"Param1": [
			16,
			1626
		]
	},
	"7203": {
		"ID": 7203,
		"LoseConditionType": "BattleLoseConditionType_ActorDie",
		"Param1": [
			16,
			1627
		]
	},
	"7204": {
		"ID": 7204,
		"LoseConditionType": "BattleLoseConditionType_ActorDie",
		"Param1": [
			16
		]
	},
	"7205": {
		"ID": 7205,
		"LoseConditionType": "BattleLoseConditionType_NpcDieCount",
		"Param1": [
			1629
		],
		"Param2": [
			2
		]
	},
	"7206": {
		"ID": 7206,
		"LoseConditionType": "BattleLoseConditionType_NpcDieCount",
		"Param1": [
			1630
		],
		"Param2": [
			2
		]
	},
	"7210": {
		"ID": 7210,
		"LoseConditionType": "BattleLoseConditionType_ActorDie",
		"Param1": [
			25
		]
	},
	"7211": {
		"ID": 7211,
		"LoseConditionType": "BattleLoseConditionType_ActorDie",
		"Param1": [
			25,
			1766
		]
	},
	"7212": {
		"ID": 7212,
		"LoseConditionType": "BattleLoseConditionType_ActorDie",
		"Param1": [
			29
		]
	},
	"7213": {
		"ID": 7213,
		"LoseConditionType": "BattleLoseConditionType_EventTrigger",
		"Param1": [
			125105
		]
	},
	"7214": {
		"ID": 7214,
		"LoseConditionType": "BattleLoseConditionType_ActorDie",
		"Param1": [
			11
		]
	},
	"7215": {
		"ID": 7215,
		"LoseConditionType": "BattleLoseConditionType_NpcDieCount",
		"Param2": [
			2
		]
	},
	"7216": {
		"ID": 7216,
		"LoseConditionType": "BattleLoseConditionType_ActorDie",
		"Param1": [
			1882
		]
	},
	"7217": {
		"ID": 7217,
		"LoseConditionType": "BattleLoseConditionType_ActorDie",
		"Param1": [
			1883
		]
	},
	"7218": {
		"ID": 7218,
		"LoseConditionType": "BattleLoseConditionType_DieCount",
		"Param2": [
			2
		]
	},
	"7219": {
		"ID": 7219,
		"LoseConditionType": "BattleLoseConditionType_ActorDie",
		"Param1": [
			1890
		]
	},
	"7220": {
		"ID": 7220,
		"LoseConditionType": "BattleLoseConditionType_ActorDie",
		"Param1": [
			20
		]
	},
	"7221": {
		"ID": 7221,
		"LoseConditionType": "BattleLoseConditionType_NpcDieCount",
		"Param2": [
			1
		]
	},
	"7222": {
		"ID": 7222,
		"LoseConditionType": "BattleLoseConditionType_DieCount",
		"Param2": [
			3
		]
	},
	"7223": {
		"ID": 7223,
		"LoseConditionType": "BattleLoseConditionType_ActorReachPosition",
		"Param2": [
			1
		],
		"Param3": [
			{
				"X": 9,
				"Y": 1
			},
			{
				"X": 10,
				"Y": 1
			},
			{
				"X": 9,
				"Y": 2
			},
			{
				"X": 10,
				"Y": 2
			},
			{
				"X": 9,
				"Y": 3
			},
			{
				"X": 10,
				"Y": 3
			}
		]
	},
	"7224": {
		"ID": 7224,
		"LoseConditionType": "BattleLoseConditionType_ActorDie",
		"Param1": [
			53
		]
	},
	"7225": {
		"ID": 7225,
		"LoseConditionType": "BattleLoseConditionType_ActorDie",
		"Param1": [
			2663
		]
	},
	"7226": {
		"ID": 7226,
		"LoseConditionType": "BattleLoseConditionType_ActorDie",
		"Param1": [
			2664
		]
	},
	"7227": {
		"ID": 7227,
		"LoseConditionType": "BattleLoseConditionType_ActorDie",
		"Param1": [
			2673
		]
	},
	"7228": {
		"ID": 7228,
		"LoseConditionType": "BattleLoseConditionType_DieCount",
		"Param2": [
			1
		]
	},
	"7229": {
		"ID": 7229,
		"LoseConditionType": "BattleLoseConditionType_ActorDie",
		"Param1": [
			2959
		]
	},
	"7230": {
		"ID": 7230,
		"LoseConditionType": "BattleLoseConditionType_EventTrigger",
		"Param1": [
			251012
		]
	},
	"7231": {
		"ID": 7231,
		"LoseConditionType": "BattleLoseConditionType_ActorDie",
		"Param1": [
			9812,
			9813,
			9814,
			9871,
			9872,
			9873
		]
	},
	"7232": {
		"ID": 7232,
		"LoseConditionType": "BattleLoseConditionType_ActorDie",
		"Param1": [
			9815
		]
	},
	"7233": {
		"ID": 7233,
		"LoseConditionType": "BattleLoseConditionType_DieCount",
		"Param2": [
			2
		]
	},
	"7270": {
		"ID": 7270,
		"LoseConditionType": "BattleLoseConditionType_ActorDie",
		"Param1": [
			27
		]
	},
	"7271": {
		"ID": 7271,
		"LoseConditionType": "BattleLoseConditionType_ActorDie",
		"Param1": [
			1680
		]
	},
	"7272": {
		"ID": 7272,
		"LoseConditionType": "BattleLoseConditionType_ActorReachPosition",
		"Param1": [
			1661
		],
		"Param2": [
			1
		],
		"Param3": [
			{
				"X": 2,
				"Y": 20
			},
			{
				"X": 3,
				"Y": 20
			}
		]
	},
	"7273": {
		"ID": 7273,
		"LoseConditionType": "BattleLoseConditionType_ActorDie",
		"Param1": [
			1681
		]
	},
	"7274": {
		"ID": 7274,
		"LoseConditionType": "BattleLoseConditionType_ActorDie",
		"Param1": [
			1682
		]
	},
	"7275": {
		"ID": 7275,
		"LoseConditionType": "BattleLoseConditionType_ActorDie",
		"Param1": [
			1683
		]
	},
	"7276": {
		"ID": 7276,
		"LoseConditionType": "BattleLoseConditionType_ActorDie",
		"Param1": [
			1684
		]
	},
	"7280": {
		"ID": 7280,
		"LoseConditionType": "BattleLoseConditionType_ActorDie",
		"Param1": [
			28
		]
	},
	"7281": {
		"ID": 7281,
		"LoseConditionType": "BattleLoseConditionType_ActorDie",
		"Param1": [
			1023
		]
	},
	"7282": {
		"ID": 7282,
		"LoseConditionType": "BattleLoseConditionType_NpcDieCount",
		"Param2": [
			1
		]
	},
	"7320": {
		"ID": 7320,
		"LoseConditionType": "BattleLoseConditionType_ActorDie",
		"Param1": [
			32
		]
	},
	"7321": {
		"ID": 7321,
		"LoseConditionType": "BattleLoseConditionType_NpcDieCount",
		"Param2": [
			4
		]
	},
	"7322": {
		"ID": 7322,
		"LoseConditionType": "BattleLoseConditionType_NpcDieCount",
		"Param2": [
			3
		]
	},
	"7323": {
		"ID": 7323,
		"LoseConditionType": "BattleLoseConditionType_NpcDieCount",
		"Param2": [
			4
		]
	},
	"7324": {
		"ID": 7324,
		"LoseConditionType": "BattleLoseConditionType_ActorDie",
		"Param1": [
			1959
		]
	},
	"7325": {
		"ID": 7325,
		"LoseConditionType": "BattleLoseConditionType_ActorDie",
		"Param1": [
			1960
		]
	},
	"7326": {
		"ID": 7326,
		"LoseConditionType": "BattleLoseConditionType_ActorDie",
		"Param1": [
			1961
		]
	},
	"7330": {
		"ID": 7330,
		"LoseConditionType": "BattleLoseConditionType_ActorDie",
		"Param1": [
			33
		]
	},
	"7340": {
		"ID": 7340,
		"LoseConditionType": "BattleLoseConditionType_ActorDie",
		"Param1": [
			51
		]
	},
	"7341": {
		"ID": 7341,
		"LoseConditionType": "BattleLoseConditionType_ActorDie",
		"Param1": [
			2076
		]
	},
	"7350": {
		"ID": 7350,
		"LoseConditionType": "BattleLoseConditionType_ActorDie",
		"Param1": [
			37
		]
	},
	"7355": {
		"ID": 7355,
		"LoseConditionType": "BattleLoseConditionType_ActorDie",
		"Param1": [
			38
		]
	},
	"7520": {
		"ID": 7520,
		"LoseConditionType": "BattleLoseConditionType_ActorDie",
		"Param1": [
			52
		]
	},
	"7521": {
		"ID": 7521,
		"LoseConditionType": "BattleLoseConditionType_NpcDieCount",
		"Param2": [
			1
		]
	},
	"7522": {
		"ID": 7522,
		"LoseConditionType": "BattleLoseConditionType_ActorDie",
		"Param1": [
			54
		]
	},
	"7523": {
		"ID": 7523,
		"LoseConditionType": "BattleLoseConditionType_ActorDie",
		"Param1": [
			691
		]
	},
	"7560": {
		"ID": 7560,
		"LoseConditionType": "BattleLoseConditionType_ActorDie",
		"Param1": [
			56
		]
	},
	"7563": {
		"ID": 7563,
		"LoseConditionType": "BattleLoseConditionType_ActorDie",
		"Param1": [
			2517
		]
	},
	"7564": {
		"ID": 7564,
		"LoseConditionType": "BattleLoseConditionType_ActorDie",
		"Param1": [
			2519
		]
	},
	"7590": {
		"ID": 7590,
		"LoseConditionType": "BattleLoseConditionType_ActorDie",
		"Param1": [
			55
		]
	},
	"7591": {
		"ID": 7591,
		"LoseConditionType": "BattleLoseConditionType_ActorDie",
		"Param1": [
			2553
		]
	},
	"7592": {
		"ID": 7592,
		"LoseConditionType": "BattleLoseConditionType_ActorReachPosition",
		"Param1": [
			2553
		],
		"Param3": [
			{
				"X": 8,
				"Y": 2
			}
		]
	},
	"7593": {
		"ID": 7593,
		"LoseConditionType": "BattleLoseConditionType_ActorDie",
		"Param1": [
			2560
		]
	},
	"7594": {
		"ID": 7594,
		"LoseConditionType": "BattleLoseConditionType_ActorDie",
		"Param1": [
			2196
		]
	},
	"7595": {
		"ID": 7595,
		"LoseConditionType": "BattleLoseConditionType_PlayerDieCount",
		"Param2": [
			3
		]
	},
	"7596": {
		"ID": 7596,
		"LoseConditionType": "BattleLoseConditionType_ActorDie",
		"Param1": [
			1730
		]
	},
	"7597": {
		"ID": 7597,
		"LoseConditionType": "BattleLoseConditionType_PlayerDieCount",
		"Param2": [
			1
		]
	},
	"7598": {
		"ID": 7598,
		"LoseConditionType": "BattleLoseConditionType_EventTrigger",
		"Param1": [
			400635
		]
	},
	"7599": {
		"ID": 7599,
		"LoseConditionType": "BattleLoseConditionType_EventTrigger",
		"Param1": [
			400636
		]
	},
	"7600": {
		"ID": 7600,
		"LoseConditionType": "BattleLoseConditionType_ActorDie",
		"Param1": [
			61
		]
	},
	"7601": {
		"ID": 7601,
		"LoseConditionType": "BattleLoseConditionType_EventTrigger",
		"Param1": [
			400641
		]
	},
	"7602": {
		"ID": 7602,
		"LoseConditionType": "BattleLoseConditionType_ActorDie",
		"Param1": [
			88
		]
	},
	"7603": {
		"ID": 7603,
		"LoseConditionType": "BattleLoseConditionType_ActorDie",
		"Param1": [
			9625
		]
	},
	"7604": {
		"ID": 7604,
		"LoseConditionType": "BattleLoseConditionType_ActorReachPosition",
		"Param1": [
			9623
		],
		"Param3": [
			{
				"X": 0,
				"Y": 6
			},
			{
				"X": 0,
				"Y": 7
			}
		]
	},
	"7620": {
		"ID": 7620,
		"LoseConditionType": "BattleLoseConditionType_ActorDie",
		"Param1": [
			59
		]
	},
	"7621": {
		"ID": 7621,
		"LoseConditionType": "BattleLoseConditionType_ActorReachPosition",
		"Param2": [
			1
		],
		"Param3": [
			{
				"X": 8,
				"Y": 9
			},
			{
				"X": 9,
				"Y": 9
			},
			{
				"X": 10,
				"Y": 9
			},
			{
				"X": 18,
				"Y": 9
			},
			{
				"X": 19,
				"Y": 9
			},
			{
				"X": 20,
				"Y": 9
			},
			{
				"X": 21,
				"Y": 9
			}
		]
	},
	"7622": {
		"ID": 7622,
		"LoseConditionType": "BattleLoseConditionType_ActorReachPosition",
		"Param2": [
			1
		],
		"Param3": [
			{
				"X": 16,
				"Y": 17
			},
			{
				"X": 16,
				"Y": 18
			},
			{
				"X": 17,
				"Y": 17
			},
			{
				"X": 17,
				"Y": 18
			}
		]
	},
	"7630": {
		"ID": 7630,
		"LoseConditionType": "BattleLoseConditionType_ActorDie",
		"Param1": [
			88,
			9579
		]
	},
	"7631": {
		"ID": 7631,
		"LoseConditionType": "BattleLoseConditionType_ActorDie",
		"Param1": [
			88
		]
	},
	"7633": {
		"ID": 7633,
		"LoseConditionType": "BattleLoseConditionType_ActorDie",
		"Param1": [
			80
		]
	},
	"7634": {
		"ID": 7634,
		"LoseConditionType": "BattleLoseConditionType_ActorDie",
		"Param1": [
			2449
		]
	},
	"7642": {
		"ID": 7642,
		"LoseConditionType": "BattleLoseConditionType_NpcDieCount",
		"Param2": [
			2
		]
	},
	"7643": {
		"ID": 7643,
		"LoseConditionType": "BattleLoseConditionType_ActorDie",
		"Param1": [
			66
		]
	},
	"7644": {
		"ID": 7644,
		"LoseConditionType": "BattleLoseConditionType_ActorDie",
		"Param1": [
			9701
		]
	},
	"7645": {
		"ID": 7645,
		"LoseConditionType": "BattleLoseConditionType_ActorReachPosition",
		"Param2": [
			1
		],
		"Param3": [
			{
				"X": 13,
				"Y": 5
			},
			{
				"X": 14,
				"Y": 5
			},
			{
				"X": 15,
				"Y": 5
			}
		]
	},
	"7646": {
		"ID": 7646,
		"LoseConditionType": "BattleLoseConditionType_ActorDie",
		"Param1": [
			2248
		]
	},
	"7647": {
		"ID": 7647,
		"LoseConditionType": "BattleLoseConditionType_ActorDie",
		"Param1": [
			1341
		]
	},
	"7648": {
		"ID": 7648,
		"LoseConditionType": "BattleLoseConditionType_ActorDie",
		"Param1": [
			20293
		]
	},
	"7649": {
		"ID": 7649,
		"LoseConditionType": "BattleLoseConditionType_ActorReachPosition",
		"Param2": [
			1
		],
		"Param3": [
			{
				"X": 5,
				"Y": 5
			},
			{
				"X": 6,
				"Y": 5
			},
			{
				"X": 7,
				"Y": 5
			},
			{
				"X": 5,
				"Y": 6
			},
			{
				"X": 6,
				"Y": 6
			},
			{
				"X": 7,
				"Y": 6
			},
			{
				"X": 5,
				"Y": 7
			},
			{
				"X": 6,
				"Y": 7
			},
			{
				"X": 7,
				"Y": 7
			}
		]
	},
	"7650": {
		"ID": 7650,
		"LoseConditionType": "BattleLoseConditionType_ActorDie",
		"Param1": [
			89
		]
	},
	"8000": {
		"ID": 8000,
		"LoseConditionType": "BattleLoseConditionType_PlayerDieCount",
		"Param2": [
			2
		]
	},
	"10801": {
		"ID": 10801,
		"LoseConditionType": "BattleLoseConditionType_ActorDie",
		"Param1": [
			9046
		]
	},
	"10811": {
		"ID": 10811,
		"LoseConditionType": "BattleLoseConditionType_ActorDie",
		"Param1": [
			9048
		]
	},
	"10812": {
		"ID": 10812,
		"LoseConditionType": "BattleLoseConditionType_ActorDie",
		"Param1": [
			9050
		]
	},
	"10821": {
		"ID": 10821,
		"LoseConditionType": "BattleLoseConditionType_ActorDie",
		"Param1": [
			9052
		]
	},
	"15801": {
		"ID": 15801,
		"LoseConditionType": "BattleLoseConditionType_ActorDie",
		"Param1": [
			9055
		]
	},
	"15811": {
		"ID": 15811,
		"LoseConditionType": "BattleLoseConditionType_ActorDie",
		"Param1": [
			9057
		]
	},
	"15812": {
		"ID": 15812,
		"LoseConditionType": "BattleLoseConditionType_ActorDie",
		"Param1": [
			9059
		]
	},
	"15821": {
		"ID": 15821,
		"LoseConditionType": "BattleLoseConditionType_ActorDie",
		"Param1": [
			9061
		]
	},
	"20001": {
		"ID": 20001,
		"LoseConditionType": "BattleLoseConditionType_ActorDie",
		"Param1": [
			60
		]
	},
	"20002": {
		"ID": 20002,
		"LoseConditionType": "BattleLoseConditionType_ActorReachPosition",
		"Param2": [
			2
		],
		"Param3": [
			{
				"X": 0,
				"Y": 5
			},
			{
				"X": 0,
				"Y": 6
			},
			{
				"X": 1,
				"Y": 5
			},
			{
				"X": 1,
				"Y": 6
			}
		]
	},
	"20003": {
		"ID": 20003,
		"LoseConditionType": "BattleLoseConditionType_ActorDie",
		"Param1": [
			9101
		]
	},
	"20004": {
		"ID": 20004,
		"LoseConditionType": "BattleLoseConditionType_ActorDie",
		"Param1": [
			9102
		]
	},
	"20005": {
		"ID": 20005,
		"LoseConditionType": "BattleLoseConditionType_ActorDie",
		"Param1": [
			9112
		]
	},
	"20006": {
		"ID": 20006,
		"LoseConditionType": "BattleLoseConditionType_ActorDie",
		"Param1": [
			9113
		]
	},
	"20007": {
		"ID": 20007,
		"LoseConditionType": "BattleLoseConditionType_ActorDie",
		"Param1": [
			9114
		]
	},
	"20008": {
		"ID": 20008,
		"LoseConditionType": "BattleLoseConditionType_ActorReachPosition",
		"Param2": [
			2
		],
		"Param3": [
			{
				"X": 8,
				"Y": 3
			},
			{
				"X": 8,
				"Y": 4
			},
			{
				"X": 9,
				"Y": 3
			},
			{
				"X": 9,
				"Y": 4
			}
		]
	},
	"20009": {
		"ID": 20009,
		"LoseConditionType": "BattleLoseConditionType_EventTrigger",
		"Param1": [
			4393
		]
	},
	"20010": {
		"ID": 20010,
		"LoseConditionType": "BattleLoseConditionType_ActorDie",
		"Param1": [
			9130
		]
	},
	"20011": {
		"ID": 20011,
		"LoseConditionType": "BattleLoseConditionType_ActorDie",
		"Param1": [
			9131
		]
	},
	"20012": {
		"ID": 20012,
		"LoseConditionType": "BattleLoseConditionType_ActorDie",
		"Param1": [
			9132
		]
	},
	"20203": {
		"ID": 20203,
		"LoseConditionType": "BattleLoseConditionType_EventTrigger",
		"Param1": [
			4087
		]
	},
	"20204": {
		"ID": 20204,
		"LoseConditionType": "BattleLoseConditionType_NpcDieCount",
		"Param2": [
			2
		]
	},
	"20206": {
		"ID": 20206,
		"LoseConditionType": "BattleLoseConditionType_ActorDie",
		"Param1": [
			39
		]
	},
	"20208": {
		"ID": 20208,
		"LoseConditionType": "BattleLoseConditionType_ActorDie",
		"Param1": [
			2776
		]
	},
	"20209": {
		"ID": 20209,
		"LoseConditionType": "BattleLoseConditionType_ActorDie",
		"Param1": [
			2778
		]
	},
	"20210": {
		"ID": 20210,
		"LoseConditionType": "BattleLoseConditionType_ActorDie",
		"Param1": [
			39
		]
	},
	"20211": {
		"ID": 20211,
		"LoseConditionType": "BattleLoseConditionType_ActorDie",
		"Param1": [
			2779
		]
	},
	"20212": {
		"ID": 20212,
		"LoseConditionType": "BattleLoseConditionType_ActorDie",
		"Param1": [
			72,
			2905
		]
	},
	"20220": {
		"ID": 20220,
		"LoseConditionType": "BattleLoseConditionType_ActorDie",
		"Param1": [
			72
		]
	},
	"20230": {
		"ID": 20230,
		"LoseConditionType": "BattleLoseConditionType_ActorDie",
		"Param1": [
			72,
			2907
		]
	},
	"20240": {
		"ID": 20240,
		"LoseConditionType": "BattleLoseConditionType_ActorDie",
		"Param1": [
			72,
			2906,
			2910
		]
	},
	"20300": {
		"ID": 20300,
		"LoseConditionType": "BattleLoseConditionType_ActorDie",
		"Param1": [
			71
		]
	},
	"20302": {
		"ID": 20302,
		"LoseConditionType": "BattleLoseConditionType_ActorReachPosition",
		"Param2": [
			1
		],
		"Param3": [
			{
				"X": 0,
				"Y": 23
			},
			{
				"X": 1,
				"Y": 23
			},
			{
				"X": 2,
				"Y": 23
			},
			{
				"X": 3,
				"Y": 23
			},
			{
				"X": 4,
				"Y": 23
			},
			{
				"X": 5,
				"Y": 23
			},
			{
				"X": 6,
				"Y": 23
			},
			{
				"X": 7,
				"Y": 23
			},
			{
				"X": 8,
				"Y": 23
			},
			{
				"X": 9,
				"Y": 23
			},
			{
				"X": 10,
				"Y": 23
			},
			{
				"X": 13,
				"Y": 23
			},
			{
				"X": 14,
				"Y": 23
			},
			{
				"X": 15,
				"Y": 23
			},
			{
				"X": 16,
				"Y": 23
			},
			{
				"X": 17,
				"Y": 23
			},
			{
				"X": 18,
				"Y": 23
			},
			{
				"X": 19,
				"Y": 23
			},
			{
				"X": 20,
				"Y": 23
			},
			{
				"X": 21,
				"Y": 23
			},
			{
				"X": 22,
				"Y": 23
			},
			{
				"X": 24,
				"Y": 23
			}
		]
	},
	"20305": {
		"ID": 20305,
		"LoseConditionType": "BattleLoseConditionType_ActorDie",
		"Param1": [
			67
		]
	},
	"20321": {
		"ID": 20321,
		"LoseConditionType": "BattleLoseConditionType_ActorDie",
		"Param1": [
			86
		]
	},
	"20401": {
		"ID": 20401,
		"LoseConditionType": "BattleLoseConditionType_ActorDie",
		"Param1": [
			73
		]
	},
	"20601": {
		"ID": 20601,
		"LoseConditionType": "BattleLoseConditionType_ActorReachPosition",
		"Param1": [
			9454
		],
		"Param2": [
			1
		],
		"Param3": [
			{
				"X": 2,
				"Y": 1
			}
		]
	},
	"20602": {
		"ID": 20602,
		"LoseConditionType": "BattleLoseConditionType_ActorDie",
		"Param1": [
			58
		]
	},
	"20604": {
		"ID": 20604,
		"LoseConditionType": "BattleLoseConditionType_NpcDieCount",
		"Param2": [
			1
		]
	},
	"20605": {
		"ID": 20605,
		"LoseConditionType": "BattleLoseConditionType_ActorDie",
		"Param1": [
			9486
		]
	},
	"50211": {
		"ID": 50211,
		"LoseConditionType": "BattleLoseConditionType_ActorDie",
		"Param1": [
			9219
		]
	},
	"502131": {
		"ID": 502131,
		"LoseConditionType": "BattleLoseConditionType_ActorReachPosition",
		"Param1": [
			9235
		],
		"Param2": [
			1
		],
		"Param3": [
			{
				"X": 7,
				"Y": 0
			},
			{
				"X": 8,
				"Y": 0
			},
			{
				"X": 9,
				"Y": 0
			},
			{
				"X": 10,
				"Y": 0
			},
			{
				"X": 11,
				"Y": 0
			}
		]
	},
	"502132": {
		"ID": 502132,
		"LoseConditionType": "BattleLoseConditionType_ActorReachPosition",
		"Param1": [
			9236
		],
		"Param2": [
			1
		],
		"Param3": [
			{
				"X": 7,
				"Y": 0
			},
			{
				"X": 8,
				"Y": 0
			},
			{
				"X": 9,
				"Y": 0
			},
			{
				"X": 10,
				"Y": 0
			},
			{
				"X": 11,
				"Y": 0
			}
		]
	},
	"50316": {
		"ID": 50316,
		"LoseConditionType": "BattleLoseConditionType_ActorDie",
		"Param1": [
			9560,
			9561
		]
	},
	"68291": {
		"ID": 68291,
		"LoseConditionType": "BattleLoseConditionType_ActorDie",
		"Param1": [
			69
		]
	},
	"68292": {
		"ID": 68292,
		"LoseConditionType": "BattleLoseConditionType_ActorDie",
		"Param1": [
			2650
		]
	},
	"68293": {
		"ID": 68293,
		"LoseConditionType": "BattleLoseConditionType_ActorDie",
		"Param1": [
			2646
		]
	},
	"68294": {
		"ID": 68294,
		"LoseConditionType": "BattleLoseConditionType_ActorDie",
		"Param1": [
			70
		]
	},
	"68295": {
		"ID": 68295,
		"LoseConditionType": "BattleLoseConditionType_ActorDie",
		"Param1": [
			74
		]
	},
	"50218": {
		"ID": 50218,
		"LoseConditionType": "BattleLoseConditionType_ActorDie",
		"Param1": [
			9220
		]
	},
	"50219": {
		"ID": 50219,
		"LoseConditionType": "BattleLoseConditionType_ActorDie",
		"Param1": [
			9221
		]
	},
	"50220": {
		"ID": 50220,
		"LoseConditionType": "BattleLoseConditionType_ActorReachPosition",
		"Param2": [
			1
		],
		"Param3": [
			{
				"X": 8,
				"Y": 0
			},
			{
				"X": 9,
				"Y": 0
			},
			{
				"X": 8,
				"Y": 1
			},
			{
				"X": 9,
				"Y": 1
			}
		]
	},
	"50416": {
		"ID": 50416,
		"LoseConditionType": "BattleLoseConditionType_PlayerDieCount",
		"Param2": [
			1
		]
	},
	"50480": {
		"ID": 50480,
		"LoseConditionType": "BattleLoseConditionType_PlayerDieCount",
		"Param2": [
			2
		]
	},
	"300000": {
		"ID": 300000,
		"LoseConditionType": "BattleLoseConditionType_ActorDie",
		"Param1": [
			2715
		]
	},
	"300001": {
		"ID": 300001,
		"LoseConditionType": "BattleLoseConditionType_NpcDieCount",
		"Param2": [
			1
		]
	},
	"502401": {
		"ID": 502401,
		"LoseConditionType": "BattleLoseConditionType_ActorDie",
		"Param1": [
			9221
		]
	},
	"502402": {
		"ID": 502402,
		"LoseConditionType": "BattleLoseConditionType_ActorDie",
		"Param1": [
			9301
		]
	},
	"504150": {
		"ID": 504150,
		"LoseConditionType": "BattleLoseConditionType_ActorDie",
		"Param1": [
			9692
		]
	},
	"504151": {
		"ID": 504151,
		"LoseConditionType": "BattleLoseConditionType_ActorDie",
		"Param1": [
			9691
		]
	},
	"503101": {
		"ID": 503101,
		"LoseConditionType": "BattleLoseConditionType_DieCount",
		"Param2": [
			1
		]
	},
	"503111": {
		"ID": 503111,
		"LoseConditionType": "BattleLoseConditionType_ActorDie",
		"Param1": [
			9534,
			1929,
			1930
		]
	}
}