{
	"1": {
		"ID": 1,
		"Name": "A Strange Sound",
		"PrevLevelId": 0,
		"UnlockDaysDelay": 0,
		"EnergySuccess": 10,
		"EnergyFail": 2,
		"MonsterLevel": 30,
		"BattleID": 6020,
		"DialogBeforeID": 0,
		"DialogAfterID": 0,
		"PlayerExp": 10,
		"HeroExp": 50,
		"Gold": 531,
		"ScoreBase": 200,
		"CommonRewardList": [
			{
				"GoodsType": "GoodsType_Gold",
				"Id": 0,
				"Count": 10000
			},
			{
				"GoodsType": "GoodsType_Item",
				"Id": 3203,
				"Count": 2
			}
		],
		"ItemDropCountDisplay": 2,
		"Strategy": ""
	},
	"2": {
		"ID": 2,
		"Name": "Alhazard Vortex",
		"PrevLevelId": 1,
		"UnlockDaysDelay": 2,
		"EnergySuccess": 10,
		"EnergyFail": 2,
		"MonsterLevel": 40,
		"BattleID": 6021,
		"DialogBeforeID": 0,
		"DialogAfterID": 0,
		"PlayerExp": 10,
		"HeroExp": 60,
		"Gold": 752,
		"ScoreBase": 400,
		"CommonRewardList": [
			{
				"GoodsType": "GoodsType_Gold",
				"Id": 0,
				"Count": 20000
			},
			{
				"GoodsType": "GoodsType_Crystal",
				"Id": 0,
				"Count": 50
			}
		],
		"ItemDropCountDisplay": 2,
		"Strategy": ""
	},
	"3": {
		"ID": 3,
		"Name": "Dark Revival",
		"PrevLevelId": 2,
		"UnlockDaysDelay": 4,
		"EnergySuccess": 10,
		"EnergyFail": 2,
		"MonsterLevel": 50,
		"BattleID": 6022,
		"DialogBeforeID": 0,
		"DialogAfterID": 0,
		"PlayerExp": 10,
		"HeroExp": 70,
		"Gold": 1004,
		"ScoreBase": 600,
		"CommonRewardList": [
			{
				"GoodsType": "GoodsType_Gold",
				"Id": 0,
				"Count": 30000
			},
			{
				"GoodsType": "GoodsType_Item",
				"Id": 3203,
				"Count": 3
			}
		],
		"ItemDropCountDisplay": 2,
		"Strategy": ""
	},
	"4": {
		"ID": 4,
		"Name": "Chaos War",
		"PrevLevelId": 3,
		"UnlockDaysDelay": 6,
		"EnergySuccess": 10,
		"EnergyFail": 2,
		"MonsterLevel": 60,
		"BattleID": 6023,
		"DialogBeforeID": 0,
		"DialogAfterID": 0,
		"PlayerExp": 10,
		"HeroExp": 80,
		"Gold": 1282,
		"ScoreBase": 800,
		"CommonRewardList": [
			{
				"GoodsType": "GoodsType_Gold",
				"Id": 0,
				"Count": 40000
			},
			{
				"GoodsType": "GoodsType_Item",
				"Id": 4001,
				"Count": 1
			}
		],
		"ItemDropCountDisplay": 2,
		"Strategy": ""
	},
	"5": {
		"ID": 5,
		"Name": "Demon Prince",
		"PrevLevelId": 4,
		"UnlockDaysDelay": 8,
		"EnergySuccess": 10,
		"EnergyFail": 2,
		"MonsterLevel": 65,
		"BattleID": 6024,
		"DialogBeforeID": 0,
		"DialogAfterID": 0,
		"PlayerExp": 10,
		"HeroExp": 80,
		"Gold": 1282,
		"ScoreBase": 1000,
		"CommonRewardList": [
			{
				"GoodsType": "GoodsType_Item",
				"Id": 1009,
				"Count": 25
			},
			{
				"GoodsType": "GoodsType_Gold",
				"Id": 0,
				"Count": 50000
			}
		],
		"ItemDropCountDisplay": 2,
		"Strategy": ""
	},
	"11": {
		"ID": 11,
		"Name": "Swimsuit Holiday",
		"PrevLevelId": 0,
		"UnlockDaysDelay": 0,
		"EnergySuccess": 10,
		"EnergyFail": 2,
		"MonsterLevel": 30,
		"BattleID": 6050,
		"DialogBeforeID": 8010101,
		"DialogAfterID": 0,
		"PlayerExp": 10,
		"HeroExp": 50,
		"Gold": 531,
		"ScoreBase": 200,
		"CommonRewardList": [
			{
				"GoodsType": "GoodsType_Gold",
				"Id": 0,
				"Count": 10000
			},
			{
				"GoodsType": "GoodsType_Item",
				"Id": 3503,
				"Count": 1
			}
		],
		"ItemDropCountDisplay": 2,
		"Strategy": ""
	},
	"12": {
		"ID": 12,
		"Name": "Aniki? An Unexpected Encounter",
		"PrevLevelId": 11,
		"UnlockDaysDelay": 1,
		"EnergySuccess": 10,
		"EnergyFail": 2,
		"MonsterLevel": 30,
		"BattleID": 6051,
		"DialogBeforeID": 0,
		"DialogAfterID": 8010201,
		"PlayerExp": 10,
		"HeroExp": 50,
		"Gold": 531,
		"ScoreBase": 200,
		"CommonRewardList": [
			{
				"GoodsType": "GoodsType_Gold",
				"Id": 0,
				"Count": 15000
			},
			{
				"GoodsType": "GoodsType_Item",
				"Id": 3203,
				"Count": 1
			}
		],
		"ItemDropCountDisplay": 2,
		"Strategy": ""
	},
	"13": {
		"ID": 13,
		"Name": "Crazy Comments",
		"PrevLevelId": 12,
		"UnlockDaysDelay": 2,
		"EnergySuccess": 10,
		"EnergyFail": 2,
		"MonsterLevel": 40,
		"BattleID": 6052,
		"DialogBeforeID": 8010301,
		"DialogAfterID": 8010351,
		"PlayerExp": 10,
		"HeroExp": 60,
		"Gold": 752,
		"ScoreBase": 400,
		"CommonRewardList": [
			{
				"GoodsType": "GoodsType_Gold",
				"Id": 0,
				"Count": 20000
			},
			{
				"GoodsType": "GoodsType_Crystal",
				"Id": 0,
				"Count": 30
			}
		],
		"ItemDropCountDisplay": 2,
		"Strategy": ""
	},
	"14": {
		"ID": 14,
		"Name": "Fish Fleet",
		"PrevLevelId": 13,
		"UnlockDaysDelay": 3,
		"EnergySuccess": 10,
		"EnergyFail": 2,
		"MonsterLevel": 50,
		"BattleID": 6053,
		"DialogBeforeID": 8010401,
		"DialogAfterID": 8010450,
		"PlayerExp": 10,
		"HeroExp": 70,
		"Gold": 1004,
		"ScoreBase": 600,
		"CommonRewardList": [
			{
				"GoodsType": "GoodsType_Gold",
				"Id": 0,
				"Count": 25000
			},
			{
				"GoodsType": "GoodsType_Item",
				"Id": 3203,
				"Count": 1
			}
		],
		"ItemDropCountDisplay": 2,
		"Strategy": ""
	},
	"15": {
		"ID": 15,
		"Name": "Pushball Battle",
		"PrevLevelId": 14,
		"UnlockDaysDelay": 4,
		"EnergySuccess": 10,
		"EnergyFail": 2,
		"MonsterLevel": 50,
		"BattleID": 6054,
		"DialogBeforeID": 8010501,
		"DialogAfterID": 0,
		"PlayerExp": 10,
		"HeroExp": 70,
		"Gold": 1004,
		"ScoreBase": 600,
		"CommonRewardList": [
			{
				"GoodsType": "GoodsType_Gold",
				"Id": 0,
				"Count": 30000
			},
			{
				"GoodsType": "GoodsType_Item",
				"Id": 1039,
				"Count": 20
			}
		],
		"ItemDropCountDisplay": 2,
		"Strategy": ""
	},
	"16": {
		"ID": 16,
		"Name": "Aniki Throne",
		"PrevLevelId": 15,
		"UnlockDaysDelay": 5,
		"EnergySuccess": 10,
		"EnergyFail": 2,
		"MonsterLevel": 60,
		"BattleID": 6055,
		"DialogBeforeID": 8010601,
		"DialogAfterID": 8010651,
		"PlayerExp": 10,
		"HeroExp": 80,
		"Gold": 1282,
		"ScoreBase": 800,
		"CommonRewardList": [
			{
				"GoodsType": "GoodsType_Gold",
				"Id": 0,
				"Count": 35000
			},
			{
				"GoodsType": "GoodsType_Item",
				"Id": 4001,
				"Count": 1
			}
		],
		"ItemDropCountDisplay": 2,
		"Strategy": ""
	},
	"17": {
		"ID": 17,
		"Name": "Deep-sea Crisis",
		"PrevLevelId": 16,
		"UnlockDaysDelay": 6,
		"EnergySuccess": 10,
		"EnergyFail": 2,
		"MonsterLevel": 65,
		"BattleID": 6056,
		"DialogBeforeID": 8010701,
		"DialogAfterID": 8010751,
		"PlayerExp": 10,
		"HeroExp": 80,
		"Gold": 1282,
		"ScoreBase": 1000,
		"CommonRewardList": [
			{
				"GoodsType": "GoodsType_Gold",
				"Id": 0,
				"Count": 40000
			},
			{
				"GoodsType": "GoodsType_Crystal",
				"Id": 0,
				"Count": 50
			}
		],
		"ItemDropCountDisplay": 2,
		"Strategy": ""
	},
	"18": {
		"ID": 18,
		"Name": "Muscle Seal",
		"PrevLevelId": 17,
		"UnlockDaysDelay": 7,
		"EnergySuccess": 10,
		"EnergyFail": 2,
		"MonsterLevel": 65,
		"BattleID": 6057,
		"DialogBeforeID": 8010801,
		"DialogAfterID": 8010851,
		"PlayerExp": 10,
		"HeroExp": 80,
		"Gold": 1282,
		"ScoreBase": 1000,
		"CommonRewardList": [
			{
				"GoodsType": "GoodsType_Gold",
				"Id": 0,
				"Count": 50000
			},
			{
				"GoodsType": "GoodsType_Item",
				"Id": 1039,
				"Count": 30
			}
		],
		"ItemDropCountDisplay": 2,
		"Strategy": ""
	},
	"21": {
		"ID": 21,
		"Name": "Epic Eatery",
		"PrevLevelId": 0,
		"UnlockDaysDelay": 0,
		"EnergySuccess": 10,
		"EnergyFail": 2,
		"MonsterLevel": 30,
		"BattleID": 6101,
		"DialogBeforeID": 8020101,
		"DialogAfterID": 8020151,
		"PlayerExp": 10,
		"HeroExp": 50,
		"Gold": 531,
		"ScoreBase": 400,
		"CommonRewardList": [
			{
				"GoodsType": "GoodsType_Gold",
				"Id": 0,
				"Count": 10000
			},
			{
				"GoodsType": "GoodsType_Item",
				"Id": 3503,
				"Count": 1
			}
		],
		"ItemDropCountDisplay": 2,
		"Strategy": ""
	},
	"22": {
		"ID": 22,
		"Name": "Four Lords of the Continent",
		"PrevLevelId": 21,
		"UnlockDaysDelay": 1,
		"EnergySuccess": 10,
		"EnergyFail": 2,
		"MonsterLevel": 40,
		"BattleID": 6102,
		"DialogBeforeID": 8020201,
		"DialogAfterID": 8020251,
		"PlayerExp": 10,
		"HeroExp": 60,
		"Gold": 752,
		"ScoreBase": 400,
		"CommonRewardList": [
			{
				"GoodsType": "GoodsType_Gold",
				"Id": 0,
				"Count": 15000
			},
			{
				"GoodsType": "GoodsType_Item",
				"Id": 4001,
				"Count": 1
			}
		],
		"ItemDropCountDisplay": 2,
		"Strategy": ""
	},
	"23": {
		"ID": 23,
		"Name": "Love and the Twin Towers",
		"PrevLevelId": 22,
		"UnlockDaysDelay": 2,
		"EnergySuccess": 10,
		"EnergyFail": 2,
		"MonsterLevel": 40,
		"BattleID": 6103,
		"DialogBeforeID": 8020301,
		"DialogAfterID": 8020351,
		"PlayerExp": 10,
		"HeroExp": 60,
		"Gold": 752,
		"ScoreBase": 600,
		"CommonRewardList": [
			{
				"GoodsType": "GoodsType_Gold",
				"Id": 0,
				"Count": 20000
			},
			{
				"GoodsType": "GoodsType_Crystal",
				"Id": 0,
				"Count": 30
			}
		],
		"ItemDropCountDisplay": 2,
		"Strategy": ""
	},
	"24": {
		"ID": 24,
		"Name": "Mightiest Knight",
		"PrevLevelId": 23,
		"UnlockDaysDelay": 3,
		"EnergySuccess": 10,
		"EnergyFail": 2,
		"MonsterLevel": 50,
		"BattleID": 6520,
		"DialogBeforeID": 8020401,
		"DialogAfterID": 8020423,
		"PlayerExp": 10,
		"HeroExp": 70,
		"Gold": 1004,
		"ScoreBase": 600,
		"CommonRewardList": [
			{
				"GoodsType": "GoodsType_Gold",
				"Id": 0,
				"Count": 25000
			},
			{
				"GoodsType": "GoodsType_Item",
				"Id": 3203,
				"Count": 1
			}
		],
		"ItemDropCountDisplay": 2,
		"Strategy": ""
	},
	"25": {
		"ID": 25,
		"Name": "A Strange Man",
		"PrevLevelId": 24,
		"UnlockDaysDelay": 4,
		"EnergySuccess": 10,
		"EnergyFail": 2,
		"MonsterLevel": 50,
		"BattleID": 6521,
		"DialogBeforeID": 8020501,
		"DialogAfterID": 8020532,
		"PlayerExp": 10,
		"HeroExp": 70,
		"Gold": 1004,
		"ScoreBase": 800,
		"CommonRewardList": [
			{
				"GoodsType": "GoodsType_Gold",
				"Id": 0,
				"Count": 30000
			},
			{
				"GoodsType": "GoodsType_Item",
				"Id": 1038,
				"Count": 10
			}
		],
		"ItemDropCountDisplay": 2,
		"Strategy": ""
	},
	"26": {
		"ID": 26,
		"Name": "The Hardest Trial",
		"PrevLevelId": 25,
		"UnlockDaysDelay": 5,
		"EnergySuccess": 10,
		"EnergyFail": 2,
		"MonsterLevel": 60,
		"BattleID": 6106,
		"DialogBeforeID": 8020601,
		"DialogAfterID": 8020651,
		"PlayerExp": 10,
		"HeroExp": 80,
		"Gold": 1282,
		"ScoreBase": 800,
		"CommonRewardList": [
			{
				"GoodsType": "GoodsType_Gold",
				"Id": 0,
				"Count": 35000
			},
			{
				"GoodsType": "GoodsType_Crystal",
				"Id": 0,
				"Count": 50
			}
		],
		"ItemDropCountDisplay": 2,
		"Strategy": ""
	},
	"27": {
		"ID": 27,
		"Name": "Love and Family",
		"PrevLevelId": 26,
		"UnlockDaysDelay": 6,
		"EnergySuccess": 10,
		"EnergyFail": 2,
		"MonsterLevel": 60,
		"BattleID": 6107,
		"DialogBeforeID": 0,
		"DialogAfterID": 8020701,
		"PlayerExp": 10,
		"HeroExp": 80,
		"Gold": 1282,
		"ScoreBase": 1000,
		"CommonRewardList": [
			{
				"GoodsType": "GoodsType_Gold",
				"Id": 0,
				"Count": 40000
			},
			{
				"GoodsType": "GoodsType_Item",
				"Id": 3203,
				"Count": 3
			}
		],
		"ItemDropCountDisplay": 2,
		"Strategy": ""
	},
	"28": {
		"ID": 28,
		"Name": "Past, Present, and Future",
		"PrevLevelId": 27,
		"UnlockDaysDelay": 7,
		"EnergySuccess": 10,
		"EnergyFail": 2,
		"MonsterLevel": 65,
		"BattleID": 6108,
		"DialogBeforeID": 8020801,
		"DialogAfterID": 8020901,
		"PlayerExp": 10,
		"HeroExp": 80,
		"Gold": 1282,
		"ScoreBase": 1000,
		"CommonRewardList": [
			{
				"GoodsType": "GoodsType_Gold",
				"Id": 0,
				"Count": 50000
			},
			{
				"GoodsType": "GoodsType_Item",
				"Id": 1038,
				"Count": 15
			}
		],
		"ItemDropCountDisplay": 2,
		"Strategy": ""
	},
	"31": {
		"ID": 31,
		"Name": "魔剑的旋涡",
		"PrevLevelId": 0,
		"UnlockDaysDelay": 0,
		"EnergySuccess": 10,
		"EnergyFail": 2,
		"MonsterLevel": 60,
		"BattleID": 6702,
		"DialogBeforeID": 0,
		"DialogAfterID": 0,
		"PlayerExp": 10,
		"HeroExp": 80,
		"Gold": 1282,
		"ScoreBase": 400,
		"CommonRewardList": [
			{
				"GoodsType": "GoodsType_Crystal",
				"Id": 0,
				"Count": 30
			},
			{
				"GoodsType": "GoodsType_ChallengePoint",
				"Id": 0,
				"Count": 20
			},
			{
				"GoodsType": "GoodsType_Gold",
				"Id": 0,
				"Count": 80000
			}
		],
		"ItemDropCountDisplay": 4,
		"Strategy": ""
	},
	"32": {
		"ID": 32,
		"Name": "禁地的异响",
		"PrevLevelId": 0,
		"UnlockDaysDelay": 2,
		"EnergySuccess": 10,
		"EnergyFail": 2,
		"MonsterLevel": 60,
		"BattleID": 6701,
		"DialogBeforeID": 0,
		"DialogAfterID": 0,
		"PlayerExp": 10,
		"HeroExp": 80,
		"Gold": 1282,
		"ScoreBase": 400,
		"CommonRewardList": [
			{
				"GoodsType": "GoodsType_Crystal",
				"Id": 0,
				"Count": 30
			},
			{
				"GoodsType": "GoodsType_ChallengePoint",
				"Id": 0,
				"Count": 20
			},
			{
				"GoodsType": "GoodsType_Gold",
				"Id": 0,
				"Count": 80000
			}
		],
		"ItemDropCountDisplay": 4,
		"Strategy": ""
	},
	"33": {
		"ID": 33,
		"Name": "魔界王子",
		"PrevLevelId": 0,
		"UnlockDaysDelay": 4,
		"EnergySuccess": 10,
		"EnergyFail": 2,
		"MonsterLevel": 65,
		"BattleID": 6705,
		"DialogBeforeID": 0,
		"DialogAfterID": 0,
		"PlayerExp": 10,
		"HeroExp": 80,
		"Gold": 1282,
		"ScoreBase": 800,
		"CommonRewardList": [
			{
				"GoodsType": "GoodsType_Crystal",
				"Id": 0,
				"Count": 30
			},
			{
				"GoodsType": "GoodsType_ChallengePoint",
				"Id": 0,
				"Count": 40
			},
			{
				"GoodsType": "GoodsType_Gold",
				"Id": 0,
				"Count": 120000
			}
		],
		"ItemDropCountDisplay": 4,
		"Strategy": ""
	},
	"34": {
		"ID": 34,
		"Name": "黑暗再临",
		"PrevLevelId": 0,
		"UnlockDaysDelay": 6,
		"EnergySuccess": 10,
		"EnergyFail": 2,
		"MonsterLevel": 65,
		"BattleID": 6703,
		"DialogBeforeID": 0,
		"DialogAfterID": 0,
		"PlayerExp": 10,
		"HeroExp": 80,
		"Gold": 1282,
		"ScoreBase": 800,
		"CommonRewardList": [
			{
				"GoodsType": "GoodsType_Crystal",
				"Id": 0,
				"Count": 30
			},
			{
				"GoodsType": "GoodsType_ChallengePoint",
				"Id": 0,
				"Count": 40
			},
			{
				"GoodsType": "GoodsType_Gold",
				"Id": 0,
				"Count": 120000
			}
		],
		"ItemDropCountDisplay": 4,
		"Strategy": ""
	},
	"35": {
		"ID": 35,
		"Name": "混沌乱战",
		"PrevLevelId": 0,
		"UnlockDaysDelay": 8,
		"EnergySuccess": 10,
		"EnergyFail": 2,
		"MonsterLevel": 70,
		"BattleID": 6704,
		"DialogBeforeID": 0,
		"DialogAfterID": 0,
		"PlayerExp": 10,
		"HeroExp": 80,
		"Gold": 1282,
		"ScoreBase": 800,
		"CommonRewardList": [
			{
				"GoodsType": "GoodsType_Crystal",
				"Id": 0,
				"Count": 30
			},
			{
				"GoodsType": "GoodsType_ChallengePoint",
				"Id": 0,
				"Count": 40
			},
			{
				"GoodsType": "GoodsType_Gold",
				"Id": 0,
				"Count": 120000
			},
			{
				"GoodsType": "GoodsType_HeadFrame",
				"Id": 35,
				"Count": 1
			}
		],
		"ItemDropCountDisplay": 4,
		"Strategy": ""
	},
	"51": {
		"ID": 51,
		"Name": "多重人格",
		"PrevLevelId": 0,
		"UnlockDaysDelay": 0,
		"EnergySuccess": 10,
		"EnergyFail": 2,
		"MonsterLevel": 60,
		"BattleID": 50620,
		"DialogBeforeID": 0,
		"DialogAfterID": 0,
		"PlayerExp": 10,
		"HeroExp": 80,
		"Gold": 1282,
		"ScoreBase": 400,
		"CommonRewardList": [
			{
				"GoodsType": "GoodsType_Crystal",
				"Id": 0,
				"Count": 30
			},
			{
				"GoodsType": "GoodsType_ChallengePoint",
				"Id": 0,
				"Count": 20
			},
			{
				"GoodsType": "GoodsType_Gold",
				"Id": 0,
				"Count": 200000
			}
		],
		"ItemDropCountDisplay": 4,
		"Strategy": ""
	},
	"52": {
		"ID": 52,
		"Name": "飞影的招待状",
		"PrevLevelId": 0,
		"UnlockDaysDelay": 2,
		"EnergySuccess": 10,
		"EnergyFail": 2,
		"MonsterLevel": 60,
		"BattleID": 50622,
		"DialogBeforeID": 0,
		"DialogAfterID": 0,
		"PlayerExp": 10,
		"HeroExp": 80,
		"Gold": 1282,
		"ScoreBase": 400,
		"CommonRewardList": [
			{
				"GoodsType": "GoodsType_Crystal",
				"Id": 0,
				"Count": 30
			},
			{
				"GoodsType": "GoodsType_ChallengePoint",
				"Id": 0,
				"Count": 20
			},
			{
				"GoodsType": "GoodsType_Gold",
				"Id": 0,
				"Count": 200000
			}
		],
		"ItemDropCountDisplay": 4,
		"Strategy": ""
	},
	"53": {
		"ID": 53,
		"Name": "武魂之祭奠",
		"PrevLevelId": 0,
		"UnlockDaysDelay": 4,
		"EnergySuccess": 10,
		"EnergyFail": 2,
		"MonsterLevel": 65,
		"BattleID": 50623,
		"DialogBeforeID": 0,
		"DialogAfterID": 0,
		"PlayerExp": 10,
		"HeroExp": 80,
		"Gold": 1282,
		"ScoreBase": 800,
		"CommonRewardList": [
			{
				"GoodsType": "GoodsType_Crystal",
				"Id": 0,
				"Count": 30
			},
			{
				"GoodsType": "GoodsType_ChallengePoint",
				"Id": 0,
				"Count": 40
			},
			{
				"GoodsType": "GoodsType_Item",
				"Id": 3203,
				"Count": 5
			}
		],
		"ItemDropCountDisplay": 4,
		"Strategy": ""
	},
	"54": {
		"ID": 54,
		"Name": "四强·羁绊",
		"PrevLevelId": 0,
		"UnlockDaysDelay": 6,
		"EnergySuccess": 10,
		"EnergyFail": 2,
		"MonsterLevel": 65,
		"BattleID": 50624,
		"DialogBeforeID": 0,
		"DialogAfterID": 0,
		"PlayerExp": 10,
		"HeroExp": 80,
		"Gold": 1282,
		"ScoreBase": 800,
		"CommonRewardList": [
			{
				"GoodsType": "GoodsType_Crystal",
				"Id": 0,
				"Count": 30
			},
			{
				"GoodsType": "GoodsType_ChallengePoint",
				"Id": 0,
				"Count": 60
			},
			{
				"GoodsType": "GoodsType_Gold",
				"Id": 0,
				"Count": 400000
			}
		],
		"ItemDropCountDisplay": 4,
		"Strategy": ""
	},
	"55": {
		"ID": 55,
		"Name": "仙水的复仇",
		"PrevLevelId": 0,
		"UnlockDaysDelay": 8,
		"EnergySuccess": 10,
		"EnergyFail": 2,
		"MonsterLevel": 65,
		"BattleID": 50625,
		"DialogBeforeID": 0,
		"DialogAfterID": 0,
		"PlayerExp": 10,
		"HeroExp": 80,
		"Gold": 1282,
		"ScoreBase": 800,
		"CommonRewardList": [
			{
				"GoodsType": "GoodsType_Crystal",
				"Id": 0,
				"Count": 30
			},
			{
				"GoodsType": "GoodsType_ChallengePoint",
				"Id": 0,
				"Count": 60
			},
			{
				"GoodsType": "GoodsType_Item",
				"Id": 4001,
				"Count": 3
			}
		],
		"ItemDropCountDisplay": 4,
		"Strategy": ""
	}
}