{
	"1": {
		"ID": 1,
		"Name": "礼物祭",
		"Desc": "礼物祭",
		"WaypointsID": [
			1,
			2,
			3,
			4,
			5,
			6,
			7,
			8,
			9,
			10,
			11,
			12,
			13,
			14,
			15,
			16
		],
		"StartWaypointID": 2,
		"FirstScenarioID": 1,
		"Background": "CollectionActivityMap/CollectionActivityMap1_ABS/CollectionActivityMap1_Prefab.prefab",
		"BackgroundWidth": 18,
		"BackgroundHeight": 14,
		"CameraHeight": 450,
		"CameraHeightMin": 370,
		"CameraHeightMax": 550,
		"CameraAngle": 20,
		"CameraFollow": true
	},
	"2": {
		"ID": 2,
		"Name": "The 1st Episode of Trails in the Sky!",
		"Desc": "The 1st Episode of Trails in the Sky!",
		"WaypointsID": [
			101,
			102,
			103,
			104,
			105,
			106,
			107,
			108,
			109,
			110,
			111,
			112,
			113,
			114,
			115,
			116,
			117,
			118,
			119,
			120,
			121,
			122,
			123
		],
		"StartWaypointID": 104,
		"FirstScenarioID": 101,
		"Background": "CollectionActivityMap/CollectionActivityMap2_ABS/CollectionActivityMap2_Prefab.prefab",
		"BackgroundWidth": 18,
		"BackgroundHeight": 14,
		"CameraHeight": 450,
		"CameraHeightMin": 370,
		"CameraHeightMax": 550,
		"CameraAngle": 20,
		"CameraFollow": true
	},
	"3": {
		"ID": 3,
		"Name": "Trails in Time 2nd Phase",
		"Desc": "Trails in Time 2nd Phase",
		"WaypointsID": [
			201,
			202,
			203,
			204,
			205,
			206,
			207,
			208,
			209,
			210,
			211,
			212,
			213,
			214,
			215,
			216,
			217,
			218,
			219
		],
		"StartWaypointID": 201,
		"FirstScenarioID": 201,
		"Background": "CollectionActivityMap/CollectionActivityMap3_ABS/CollectionActivityMap3_Prefab.prefab",
		"BackgroundWidth": 18,
		"BackgroundHeight": 14,
		"CameraHeight": 450,
		"CameraHeightMin": 370,
		"CameraHeightMax": 550,
		"CameraAngle": 20,
		"CameraFollow": true
	},
	"4": {
		"ID": 4,
		"Name": "霸者线活动",
		"Desc": "霸者线活动",
		"WaypointsID": [
			301,
			302,
			303,
			304,
			305,
			306,
			307,
			308,
			309,
			310,
			311,
			312,
			313,
			314,
			315,
			316,
			317,
			318,
			319,
			320,
			321,
			322,
			323,
			324,
			325,
			326,
			327,
			328,
			329
		],
		"StartWaypointID": 301,
		"FirstScenarioID": 301,
		"Background": "CollectionActivityMap/CollectionActivityMap4_ABS/CollectionActivityMap4_Prefab.prefab",
		"BackgroundWidth": 14,
		"BackgroundHeight": 10,
		"CameraHeight": 550,
		"CameraHeightMin": 550,
		"CameraHeightMax": 550,
		"CameraAngle": 0,
		"CameraFollow": true
	},
	"5": {
		"ID": 5,
		"Name": "樱花绽放之刻",
		"Desc": "樱花绽放之刻",
		"WaypointsID": [
			401,
			402,
			403,
			404,
			410,
			411,
			412,
			413,
			414,
			415,
			416,
			417,
			418,
			419,
			420,
			421,
			422,
			423,
			424,
			425,
			426,
			427,
			428,
			429,
			430,
			431
		],
		"StartWaypointID": 401,
		"FirstScenarioID": 401,
		"Background": "CollectionActivityMap/CollectionActivityMap5_ABS/CollectionActivityMap5_Prefab.prefab",
		"BackgroundWidth": 14,
		"BackgroundHeight": 12,
		"CameraHeight": 550,
		"CameraHeightMin": 550,
		"CameraHeightMax": 550,
		"CameraAngle": 0,
		"CameraFollow": true
	},
	"6": {
		"ID": 6,
		"Name": "音乐会",
		"Desc": "音乐会",
		"WaypointsID": [
			501,
			502,
			503,
			504,
			505,
			506,
			507
		],
		"StartWaypointID": 501,
		"FirstScenarioID": 501,
		"Background": "CollectionActivityMap/CollectionActivityMap6_ABS/CollectionActivityMap6_Prefab.prefab",
		"BackgroundWidth": 13,
		"BackgroundHeight": 11,
		"CameraHeight": 600,
		"CameraHeightMin": 600,
		"CameraHeightMax": 600,
		"CameraAngle": 0,
		"CameraFollow": true
	},
	"7": {
		"ID": 7,
		"Name": "世上最灿烂的花火",
		"Desc": "史上最灿烂花火",
		"WaypointsID": [
			601,
			602,
			603,
			604,
			605,
			606,
			607,
			608,
			609,
			610,
			611,
			612,
			613,
			614
		],
		"StartWaypointID": 601,
		"FirstScenarioID": 601,
		"Background": "CollectionActivityMap/CollectionActivityMap7_ABS/CollectionActivityMap7_Prefab.prefab",
		"BackgroundWidth": 13,
		"BackgroundHeight": 11,
		"CameraHeight": 600,
		"CameraHeightMin": 600,
		"CameraHeightMax": 600,
		"CameraAngle": 0,
		"CameraFollow": true
	}
}