{
	"1": {
		"ID": 1
	},
	"2": {
		"ID": 2
	},
	"3": {
		"ID": 3,
		"BonusItems": [
			{
				"GoodsType": "GoodsType_Gold",
				"Id": 0,
				"Count": 8000
			}
		]
	},
	"4": {
		"ID": 4,
		"BonusItems": [
			{
				"GoodsType": "GoodsType_Gold",
				"Id": 0,
				"Count": 24000
			}
		]
	},
	"5": {
		"ID": 5,
		"BonusItems": [
			{
				"GoodsType": "GoodsType_Gold",
				"Id": 0,
				"Count": 48000
			}
		]
	},
	"6": {
		"ID": 6
	},
	"7": {
		"ID": 7
	},
	"8": {
		"ID": 8,
		"BonusItems": [
			{
				"GoodsType": "GoodsType_Gold",
				"Id": 0,
				"Count": 10000
			}
		]
	},
	"9": {
		"ID": 9,
		"BonusItems": [
			{
				"GoodsType": "GoodsType_Gold",
				"Id": 0,
				"Count": 30000
			}
		]
	},
	"10": {
		"ID": 10,
		"BonusItems": [
			{
				"GoodsType": "GoodsType_Gold",
				"Id": 0,
				"Count": 60000
			}
		]
	},
	"11": {
		"ID": 11
	},
	"12": {
		"ID": 12
	},
	"13": {
		"ID": 13,
		"BonusItems": [
			{
				"GoodsType": "GoodsType_Gold",
				"Id": 0,
				"Count": 15000
			}
		]
	},
	"14": {
		"ID": 14,
		"BonusItems": [
			{
				"GoodsType": "GoodsType_Gold",
				"Id": 0,
				"Count": 45000
			}
		]
	},
	"15": {
		"ID": 15,
		"BonusItems": [
			{
				"GoodsType": "GoodsType_Gold",
				"Id": 0,
				"Count": 90000
			}
		]
	},
	"16": {
		"ID": 16
	},
	"17": {
		"ID": 17
	},
	"18": {
		"ID": 18,
		"BonusItems": [
			{
				"GoodsType": "GoodsType_Gold",
				"Id": 0,
				"Count": 20000
			}
		]
	},
	"19": {
		"ID": 19,
		"BonusItems": [
			{
				"GoodsType": "GoodsType_Gold",
				"Id": 0,
				"Count": 60000
			}
		]
	},
	"20": {
		"ID": 20,
		"BonusItems": [
			{
				"GoodsType": "GoodsType_Gold",
				"Id": 0,
				"Count": 120000
			}
		]
	},
	"21": {
		"ID": 21
	},
	"22": {
		"ID": 22
	},
	"23": {
		"ID": 23,
		"BonusItems": [
			{
				"GoodsType": "GoodsType_Gold",
				"Id": 0,
				"Count": 25000
			}
		]
	},
	"24": {
		"ID": 24,
		"BonusItems": [
			{
				"GoodsType": "GoodsType_Gold",
				"Id": 0,
				"Count": 75000
			}
		]
	},
	"25": {
		"ID": 25,
		"BonusItems": [
			{
				"GoodsType": "GoodsType_Gold",
				"Id": 0,
				"Count": 150000
			}
		]
	},
	"26": {
		"ID": 26
	},
	"27": {
		"ID": 27
	},
	"28": {
		"ID": 28,
		"BonusItems": [
			{
				"GoodsType": "GoodsType_Gold",
				"Id": 0,
				"Count": 30000
			}
		]
	},
	"29": {
		"ID": 29,
		"BonusItems": [
			{
				"GoodsType": "GoodsType_Gold",
				"Id": 0,
				"Count": 90000
			}
		]
	},
	"30": {
		"ID": 30,
		"BonusItems": [
			{
				"GoodsType": "GoodsType_Gold",
				"Id": 0,
				"Count": 180000
			}
		]
	}
}