{
	"1": {
		"ID": 1,
		"Name": "Reversal of Fate",
		"Desc": "If history can be fabricated, what will be the fate of its heroes?",
		"LevelList": [
			1,
			2,
			3,
			4,
			5
		],
		"Image": "UI/HeroAnthem_ABS/UI_HeroAnthem_1.png",
		"UpSkillID": 77000
	},
	"2": {
		"ID": 2,
		"Name": "命运的战车",
		"Desc": "时间的巨轮滚滚而来，英雄的命运、由自己掌握！",
		"LevelList": [
			6,
			7,
			8,
			9,
			10
		],
		"Image": "UI/HeroAnthem_ABS/UI_HeroAnthem_2.png",
		"UpSkillID": 77000
	}
}