{
	"1": {
		"ID": 1,
		"Name": "Protagonists",
		"Desc": "An assembly of all the legendary main characters. <color=#a52a2aff><size=30><i>I am the protagonist of the story!</i> </size> </color>",
		"RelatedHerosID": [
			29,
			15,
			10,
			12,
			27,
			5,
			1,
			4,
			55,
			56,
			69,
			60,
			61,
			79,
			82
		],
		"Icon": "UI/Icon/KeyWord_ABS/Icon_Group_Lead.png",
		"SuperHeroID": [
			1
		]
	},
	"2": {
		"ID": 2,
		"Name": "Legion of Glory",
		"Desc": "The warriors remembered by the people of this land are <color=#a52a2aff><size=30><i>optimistic, courageous, and righteous.</i> </size> </color>",
		"RelatedHerosID": [
			14,
			15,
			10,
			12,
			5,
			11,
			13,
			1,
			4,
			3,
			19,
			22,
			24,
			48,
			45,
			69,
			35,
			88,
			89,
			86
		],
		"Icon": "UI/Icon/KeyWord_ABS/Icon_Group_Light.png",
		"SuperHeroID": [
			3,
			10,
			12
		]
	},
	"3": {
		"ID": 3,
		"Name": "Origins of Light",
		"Desc": "A radiant beam that cuts through darkness with the will of freedom. <color=#a52a2aff><size=30><i>Remembered by heroic descendants, a new legend begins.</i> </size> </color>",
		"RelatedHerosID": [
			29,
			26,
			27,
			30,
			31,
			33,
			34,
			36,
			22,
			40,
			41,
			42,
			37,
			38,
			72,
			88,
			83
		],
		"Icon": "UI/Icon/KeyWord_ABS/Icon_Group_Origin.png",
		"SuperHeroID": [
			27,
			37,
			33
		]
	},
	"4": {
		"ID": 4,
		"Name": "Empire's Honor",
		"Desc": "A group of patriotic souls who symbolize <color=#a52a2aff><size=30><i>courage, loyalty, and fearlessness.</i> </size> </color>",
		"RelatedHerosID": [
			6,
			25,
			7,
			12,
			32,
			16,
			17,
			18,
			21,
			49,
			23,
			43,
			44,
			47,
			20,
			13,
			73,
			72,
			79,
			80,
			81,
			85
		],
		"Icon": "UI/Icon/KeyWord_ABS/Icon_Group_Empire.png",
		"SuperHeroID": [
			6,
			7,
			16
		]
	},
	"5": {
		"ID": 5,
		"Name": "Dark Reincarnation",
		"Desc": "A collection of dark warriors from the history of Langrisser. <color=#a52a2aff><size=30><i>The other protagonists in the symphony of light and darkness.</i> </size> </color>",
		"RelatedHerosID": [
			9,
			8,
			25,
			7,
			17,
			20,
			49,
			39,
			28,
			54,
			71,
			59,
			67,
			85
		],
		"Icon": "UI/Icon/KeyWord_ABS/Icon_Group_Dark.png",
		"SuperHeroID": [
			9
		]
	},
	"6": {
		"ID": 6,
		"Name": "Princess Alliance",
		"Desc": "An assembly of noble and beautiful female fighters! <color=#a52a2aff><size=30><i>Each of them is a princess in our hearts.</i> </size> </color>",
		"RelatedHerosID": [
			29,
			14,
			8,
			26,
			15,
			5,
			11,
			33,
			31,
			30,
			20,
			43,
			51,
			52,
			74,
			70,
			80,
			81,
			66,
			89
		],
		"Icon": "UI/Icon/KeyWord_ABS/Icon_Group_Princess.png",
		"SuperHeroID": [
			26,
			51
		]
	},
	"7": {
		"ID": 7,
		"Name": "Strategic Masters",
		"Desc": "Those who achieve victory with intellect and strategy. <color=#a52a2aff><size=30><i>Soldiers and warhorses are but their pawns.</i> </size> </color>",
		"RelatedHerosID": [
			6,
			25,
			26,
			32,
			17,
			42,
			24,
			21,
			18,
			16,
			47,
			53,
			38,
			73,
			57,
			58,
			88,
			84
		],
		"Icon": "UI/Icon/KeyWord_ABS/Icon_Group_WisdomAndCourage.png",
		"SuperHeroID": [
			25,
			53
		]
	},
	"8": {
		"ID": 8,
		"Name": "Meteor Strike",
		"Desc": "A sharp blade that strikes at the heart of the enemy. <color=#a52a2aff><size=30><i>A hero who smashes into his enemies like a meteor!</i></size> </color>",
		"RelatedHerosID": [
			28,
			14,
			27,
			52,
			39,
			11,
			34,
			36,
			23,
			41,
			19,
			44,
			37,
			70,
			60,
			66,
			67,
			83,
			86
		],
		"Icon": "UI/Icon/KeyWord_ABS/Icon_Group_Meteor.png",
		"SuperHeroID": [
			28
		]
	},
	"9": {
		"ID": 9,
		"Name": "Yeless Legends",
		"Desc": "Foreign warriors who fight for faith. <color=#a52a2aff><size=30><i>Where one legend has ended, a new story has just begun.</i> </size> </color>",
		"RelatedHerosID": [
			51,
			52,
			53,
			54,
			55,
			56,
			74,
			71,
			60,
			61,
			57,
			58,
			66,
			84
		],
		"Icon": "UI/Icon/KeyWord_ABS/Icon_Group_Crystal.png",
		"SuperHeroID": [
			60,
			55
		]
	},
	"10": {
		"ID": 10,
		"Name": "Heroes of Time",
		"Desc": "Crossing the chasm between worlds, <color=#a52a2aff><size=30><i>heroes of space and time gather in El Sallia.</i> </size> </color>",
		"RelatedHerosID": [
			69,
			70,
			74,
			73,
			72,
			71,
			35,
			79,
			80,
			81,
			82,
			83,
			84,
			85,
			86
		],
		"Icon": "UI/Icon/KeyWord_ABS/Icon_Group_SpaceTimeHub.png",
		"SuperHeroID": [
			35,
			70,
			82
		]
	},
	"11": {
		"ID": 11,
		"Name": "超凡领域",
		"Desc": "触及神秘上位力量，<color=#a52a2aff><size=30><i>越过「人」之领域的超然者。</i> </size> </color>",
		"RelatedHerosID": [
			31,
			4,
			9,
			22,
			28,
			37,
			61,
			59,
			7,
			89,
			82
		],
		"Icon": "UI/Icon/KeyWord_ABS/Icon_Group_Transcendency.png",
		"SuperHeroID": [
			59
		]
	}
}