{
	"1": {
		"ID": 1,
		"NovicePoints": 5,
		"Reward": [
			{
				"GoodsType": "GoodsType_Equipment",
				"Id": 72,
				"Count": 1
			}
		]
	},
	"2": {
		"ID": 2,
		"NovicePoints": 15,
		"Reward": [
			{
				"GoodsType": "GoodsType_Crystal",
				"Id": 0,
				"Count": 100
			}
		]
	},
	"3": {
		"ID": 3,
		"NovicePoints": 30,
		"Reward": [
			{
				"GoodsType": "GoodsType_Equipment",
				"Id": 38,
				"Count": 1
			}
		]
	},
	"4": {
		"ID": 4,
		"NovicePoints": 45,
		"Reward": [
			{
				"GoodsType": "GoodsType_HeadFrame",
				"Id": 3,
				"Count": 1
			}
		]
	},
	"5": {
		"ID": 5,
		"NovicePoints": 60,
		"Reward": [
			{
				"GoodsType": "GoodsType_Item",
				"Id": 1014,
				"Count": 60
			}
		]
	}
}