{
	"1": {
		"ID": 1,
		"Bonus": [
			{
				"GoodsType": "GoodsType_ArenaHonour",
				"Id": 0,
				"Count": 50
			},
			{
				"GoodsType": "GoodsType_Crystal",
				"Id": 0,
				"Count": 50
			}
		]
	}
}