{
	"1": {
		"ID": 1,
		"SmallExpressionIconPath": "UI/Chat_ABS/Prefab/EmojiAssets/Emojis/1.png"
	},
	"2": {
		"ID": 2,
		"SmallExpressionIconPath": "UI/Chat_ABS/Prefab/EmojiAssets/Emojis/2.png"
	},
	"3": {
		"ID": 3,
		"SmallExpressionIconPath": "UI/Chat_ABS/Prefab/EmojiAssets/Emojis/3.png"
	},
	"4": {
		"ID": 4,
		"SmallExpressionIconPath": "UI/Chat_ABS/Prefab/EmojiAssets/Emojis/5.png"
	},
	"5": {
		"ID": 5,
		"SmallExpressionIconPath": "UI/Chat_ABS/Prefab/EmojiAssets/Emojis/6.png"
	},
	"6": {
		"ID": 6,
		"SmallExpressionIconPath": "UI/Chat_ABS/Prefab/EmojiAssets/Emojis/7.png"
	},
	"7": {
		"ID": 7,
		"SmallExpressionIconPath": "UI/Chat_ABS/Prefab/EmojiAssets/Emojis/8.png"
	},
	"8": {
		"ID": 8,
		"SmallExpressionIconPath": "UI/Chat_ABS/Prefab/EmojiAssets/Emojis/9.png"
	},
	"9": {
		"ID": 9,
		"SmallExpressionIconPath": "UI/Chat_ABS/Prefab/EmojiAssets/Emojis/10.png"
	},
	"10": {
		"ID": 10,
		"SmallExpressionIconPath": "UI/Chat_ABS/Prefab/EmojiAssets/Emojis/11.png"
	},
	"11": {
		"ID": 11,
		"SmallExpressionIconPath": "UI/Chat_ABS/Prefab/EmojiAssets/Emojis/12.png"
	},
	"12": {
		"ID": 12,
		"SmallExpressionIconPath": "UI/Chat_ABS/Prefab/EmojiAssets/Emojis/13.png"
	},
	"13": {
		"ID": 13,
		"SmallExpressionIconPath": "UI/Chat_ABS/Prefab/EmojiAssets/Emojis/14.png"
	},
	"14": {
		"ID": 14,
		"SmallExpressionIconPath": "UI/Chat_ABS/Prefab/EmojiAssets/Emojis/15.png"
	},
	"15": {
		"ID": 15,
		"SmallExpressionIconPath": "UI/Chat_ABS/Prefab/EmojiAssets/Emojis/16.png"
	},
	"16": {
		"ID": 16,
		"SmallExpressionIconPath": "UI/Chat_ABS/Prefab/EmojiAssets/Emojis/17.png"
	},
	"17": {
		"ID": 17,
		"SmallExpressionIconPath": "UI/Chat_ABS/Prefab/EmojiAssets/Emojis/18.png"
	},
	"18": {
		"ID": 18,
		"SmallExpressionIconPath": "UI/Chat_ABS/Prefab/EmojiAssets/Emojis/19.png"
	},
	"19": {
		"ID": 19,
		"SmallExpressionIconPath": "UI/Chat_ABS/Prefab/EmojiAssets/Emojis/20.png"
	},
	"20": {
		"ID": 20,
		"SmallExpressionIconPath": "UI/Chat_ABS/Prefab/EmojiAssets/Emojis/21.png"
	},
	"21": {
		"ID": 21,
		"SmallExpressionIconPath": "UI/Chat_ABS/Prefab/EmojiAssets/Emojis/22.png"
	},
	"22": {
		"ID": 22,
		"SmallExpressionIconPath": "UI/Chat_ABS/Prefab/EmojiAssets/Emojis/23.png"
	},
	"23": {
		"ID": 23,
		"SmallExpressionIconPath": "UI/Chat_ABS/Prefab/EmojiAssets/Emojis/24.png"
	},
	"24": {
		"ID": 24,
		"SmallExpressionIconPath": "UI/Chat_ABS/Prefab/EmojiAssets/Emojis/25.png"
	},
	"25": {
		"ID": 25,
		"SmallExpressionIconPath": "UI/Chat_ABS/Prefab/EmojiAssets/Emojis/26.png"
	},
	"26": {
		"ID": 26,
		"SmallExpressionIconPath": "UI/Chat_ABS/Prefab/EmojiAssets/Emojis/27.png"
	},
	"27": {
		"ID": 27,
		"SmallExpressionIconPath": "UI/Chat_ABS/Prefab/EmojiAssets/Emojis/28.png"
	},
	"28": {
		"ID": 28,
		"SmallExpressionIconPath": "UI/Chat_ABS/Prefab/EmojiAssets/Emojis/29.png"
	},
	"29": {
		"ID": 29,
		"SmallExpressionIconPath": "UI/Chat_ABS/Prefab/EmojiAssets/Emojis/30.png"
	},
	"30": {
		"ID": 30,
		"SmallExpressionIconPath": "UI/Chat_ABS/Prefab/EmojiAssets/Emojis/31.png"
	},
	"31": {
		"ID": 31,
		"SmallExpressionIconPath": "UI/Chat_ABS/Prefab/EmojiAssets/Emojis/32.png"
	},
	"32": {
		"ID": 32,
		"SmallExpressionIconPath": "UI/Chat_ABS/Prefab/EmojiAssets/Emojis/33.png"
	},
	"33": {
		"ID": 33,
		"SmallExpressionIconPath": "UI/Chat_ABS/Prefab/EmojiAssets/Emojis/34.png"
	},
	"34": {
		"ID": 34,
		"SmallExpressionIconPath": "UI/Chat_ABS/Prefab/EmojiAssets/Emojis/35.png"
	},
	"35": {
		"ID": 35,
		"SmallExpressionIconPath": "UI/Chat_ABS/Prefab/EmojiAssets/Emojis/36.png"
	},
	"36": {
		"ID": 36,
		"SmallExpressionIconPath": "UI/Chat_ABS/Prefab/EmojiAssets/Emojis/37.png"
	},
	"37": {
		"ID": 37,
		"SmallExpressionIconPath": "UI/Chat_ABS/Prefab/EmojiAssets/Emojis/38.png"
	},
	"38": {
		"ID": 38,
		"SmallExpressionIconPath": "UI/Chat_ABS/Prefab/EmojiAssets/Emojis/39.png"
	},
	"39": {
		"ID": 39,
		"SmallExpressionIconPath": "UI/Chat_ABS/Prefab/EmojiAssets/Emojis/40.png"
	},
	"40": {
		"ID": 40,
		"SmallExpressionIconPath": "UI/Chat_ABS/Prefab/EmojiAssets/Emojis/41.png"
	},
	"41": {
		"ID": 41,
		"SmallExpressionIconPath": "UI/Chat_ABS/Prefab/EmojiAssets/Emojis/42.png"
	},
	"42": {
		"ID": 42,
		"SmallExpressionIconPath": "UI/Chat_ABS/Prefab/EmojiAssets/Emojis/43.png"
	},
	"43": {
		"ID": 43,
		"SmallExpressionIconPath": "UI/Chat_ABS/Prefab/EmojiAssets/Emojis/44.png"
	},
	"44": {
		"ID": 44,
		"SmallExpressionIconPath": "UI/Chat_ABS/Prefab/EmojiAssets/Emojis/45.png"
	},
	"45": {
		"ID": 45,
		"SmallExpressionIconPath": "UI/Chat_ABS/Prefab/EmojiAssets/Emojis/46.png"
	},
	"46": {
		"ID": 46,
		"SmallExpressionIconPath": "UI/Chat_ABS/Prefab/EmojiAssets/Emojis/47.png"
	},
	"47": {
		"ID": 47,
		"SmallExpressionIconPath": "UI/Chat_ABS/Prefab/EmojiAssets/Emojis/48.png"
	},
	"48": {
		"ID": 48,
		"SmallExpressionIconPath": "UI/Chat_ABS/Prefab/EmojiAssets/Emojis/49.png"
	},
	"49": {
		"ID": 49,
		"SmallExpressionIconPath": "UI/Chat_ABS/Prefab/EmojiAssets/Emojis/50.png"
	},
	"50": {
		"ID": 50,
		"SmallExpressionIconPath": "UI/Chat_ABS/Prefab/EmojiAssets/Emojis/51.png"
	},
	"51": {
		"ID": 51,
		"SmallExpressionIconPath": "UI/Chat_ABS/Prefab/EmojiAssets/Emojis/52.png"
	},
	"52": {
		"ID": 52,
		"SmallExpressionIconPath": "UI/Chat_ABS/Prefab/EmojiAssets/Emojis/53.png"
	},
	"53": {
		"ID": 53,
		"SmallExpressionIconPath": "UI/Chat_ABS/Prefab/EmojiAssets/Emojis/54.png"
	},
	"54": {
		"ID": 54,
		"SmallExpressionIconPath": "UI/Chat_ABS/Prefab/EmojiAssets/Emojis/55.png"
	},
	"55": {
		"ID": 55,
		"SmallExpressionIconPath": "UI/Chat_ABS/Prefab/EmojiAssets/Emojis/56.png"
	},
	"56": {
		"ID": 56,
		"SmallExpressionIconPath": "UI/Chat_ABS/Prefab/EmojiAssets/Emojis/57.png"
	},
	"57": {
		"ID": 57,
		"SmallExpressionIconPath": "UI/Chat_ABS/Prefab/EmojiAssets/Emojis/58.png"
	},
	"58": {
		"ID": 58,
		"SmallExpressionIconPath": "UI/Chat_ABS/Prefab/EmojiAssets/Emojis/59.png"
	},
	"59": {
		"ID": 59,
		"SmallExpressionIconPath": "UI/Chat_ABS/Prefab/EmojiAssets/Emojis/60.png"
	},
	"60": {
		"ID": 60,
		"SmallExpressionIconPath": "UI/Chat_ABS/Prefab/EmojiAssets/Emojis/61.png"
	},
	"61": {
		"ID": 61,
		"SmallExpressionIconPath": "UI/Chat_ABS/Prefab/EmojiAssets/Emojis/62.png"
	},
	"62": {
		"ID": 62,
		"SmallExpressionIconPath": "UI/Chat_ABS/Prefab/EmojiAssets/Emojis/63.png"
	},
	"63": {
		"ID": 63,
		"SmallExpressionIconPath": "UI/Chat_ABS/Prefab/EmojiAssets/Emojis/64.png"
	},
	"64": {
		"ID": 64,
		"SmallExpressionIconPath": "UI/Chat_ABS/Prefab/EmojiAssets/Emojis/65.png"
	},
	"65": {
		"ID": 65,
		"SmallExpressionIconPath": "UI/Chat_ABS/Prefab/EmojiAssets/Emojis/66.png"
	},
	"66": {
		"ID": 66,
		"SmallExpressionIconPath": "UI/Chat_ABS/Prefab/EmojiAssets/Emojis/67.png"
	},
	"67": {
		"ID": 67,
		"SmallExpressionIconPath": "UI/Chat_ABS/Prefab/EmojiAssets/Emojis/68.png"
	},
	"68": {
		"ID": 68,
		"SmallExpressionIconPath": "UI/Chat_ABS/Prefab/EmojiAssets/Emojis/69.png"
	},
	"69": {
		"ID": 69,
		"SmallExpressionIconPath": "UI/Chat_ABS/Prefab/EmojiAssets/Emojis/70.png"
	},
	"70": {
		"ID": 70,
		"SmallExpressionIconPath": "UI/Chat_ABS/Prefab/EmojiAssets/Emojis/71.png"
	},
	"71": {
		"ID": 71,
		"SmallExpressionIconPath": "UI/Chat_ABS/Prefab/EmojiAssets/Emojis/72.png"
	},
	"72": {
		"ID": 72,
		"SmallExpressionIconPath": "UI/Chat_ABS/Prefab/EmojiAssets/Emojis/73.png"
	}
}