{
	"1": {
		"ID": 1,
		"Name": "Infantry Training",
		"SoldierType": [
			2
		],
		"LevelToUnlock": 0
	},
	"2": {
		"ID": 2,
		"Name": "Lancer Training",
		"SoldierType": [
			1
		],
		"LevelToUnlock": 41
	},
	"3": {
		"ID": 3,
		"Name": "Cavalry Training",
		"SoldierType": [
			3
		],
		"LevelToUnlock": 81
	},
	"4": {
		"ID": 4,
		"Name": "Flier&Aquatic Training Field",
		"SoldierType": [
			4,
			5
		],
		"LevelToUnlock": 61
	},
	"5": {
		"ID": 5,
		"Name": "Archer&Assassin Training Field",
		"SoldierType": [
			6,
			11
		],
		"LevelToUnlock": 21
	},
	"6": {
		"ID": 6,
		"Name": "Holy&Demon Training Field",
		"SoldierType": [
			7,
			8,
			9
		],
		"LevelToUnlock": 101
	}
}