{
	"1": {
		"ID": 1,
		"Name": "盗贼盗贼",
		"IconResource": "",
		"OpenPlayerLevel": 15,
		"EnergyFail": 6,
		"EnergySuccess": 20,
		"TicketCost": 1,
		"BattleID": 3000,
		"MonsterLevel": 20,
		"PlayerExp": 20,
		"HeroExp": 0,
		"BanditsID": [
			1,
			2,
			3,
			4
		],
		"RewardList": [
			{
				"GoodsType": "GoodsType_Item",
				"Id": 2000,
				"Count": 1
			}
		],
		"Strategy": ""
	},
	"2": {
		"ID": 2,
		"Name": "盗贼盗贼",
		"IconResource": "",
		"OpenPlayerLevel": 25,
		"EnergyFail": 6,
		"EnergySuccess": 20,
		"TicketCost": 1,
		"BattleID": 3001,
		"MonsterLevel": 25,
		"PlayerExp": 20,
		"HeroExp": 0,
		"BanditsID": [
			5,
			6,
			7,
			8
		],
		"RewardList": [
			{
				"GoodsType": "GoodsType_Item",
				"Id": 2000,
				"Count": 1
			},
			{
				"GoodsType": "GoodsType_Item",
				"Id": 2001,
				"Count": 1
			}
		],
		"Strategy": ""
	},
	"3": {
		"ID": 3,
		"Name": "盗贼盗贼",
		"IconResource": "",
		"OpenPlayerLevel": 30,
		"EnergyFail": 6,
		"EnergySuccess": 20,
		"TicketCost": 1,
		"BattleID": 3002,
		"MonsterLevel": 30,
		"PlayerExp": 20,
		"HeroExp": 0,
		"BanditsID": [
			9,
			10,
			11,
			12
		],
		"RewardList": [
			{
				"GoodsType": "GoodsType_Item",
				"Id": 2000,
				"Count": 1
			},
			{
				"GoodsType": "GoodsType_Item",
				"Id": 2001,
				"Count": 1
			},
			{
				"GoodsType": "GoodsType_Item",
				"Id": 2002,
				"Count": 1
			}
		],
		"Strategy": ""
	},
	"4": {
		"ID": 4,
		"Name": "盗贼盗贼",
		"IconResource": "",
		"OpenPlayerLevel": 35,
		"EnergyFail": 6,
		"EnergySuccess": 20,
		"TicketCost": 1,
		"BattleID": 3003,
		"MonsterLevel": 35,
		"PlayerExp": 20,
		"HeroExp": 0,
		"BanditsID": [
			13,
			14,
			15,
			16
		],
		"RewardList": [
			{
				"GoodsType": "GoodsType_Item",
				"Id": 2000,
				"Count": 1
			},
			{
				"GoodsType": "GoodsType_Item",
				"Id": 2001,
				"Count": 1
			},
			{
				"GoodsType": "GoodsType_Item",
				"Id": 2002,
				"Count": 1
			}
		],
		"Strategy": ""
	},
	"5": {
		"ID": 5,
		"Name": "盗贼盗贼",
		"IconResource": "",
		"OpenPlayerLevel": 40,
		"EnergyFail": 6,
		"EnergySuccess": 20,
		"TicketCost": 1,
		"BattleID": 3004,
		"MonsterLevel": 40,
		"PlayerExp": 20,
		"HeroExp": 0,
		"BanditsID": [
			17,
			18,
			19,
			20
		],
		"RewardList": [
			{
				"GoodsType": "GoodsType_Item",
				"Id": 2001,
				"Count": 1
			},
			{
				"GoodsType": "GoodsType_Item",
				"Id": 2002,
				"Count": 1
			},
			{
				"GoodsType": "GoodsType_Item",
				"Id": 2003,
				"Count": 1
			}
		],
		"Strategy": ""
	},
	"6": {
		"ID": 6,
		"Name": "盗贼盗贼",
		"IconResource": "",
		"OpenPlayerLevel": 45,
		"EnergyFail": 6,
		"EnergySuccess": 20,
		"TicketCost": 1,
		"BattleID": 3005,
		"MonsterLevel": 45,
		"PlayerExp": 20,
		"HeroExp": 0,
		"BanditsID": [
			21,
			22,
			23,
			24
		],
		"RewardList": [
			{
				"GoodsType": "GoodsType_Item",
				"Id": 2001,
				"Count": 1
			},
			{
				"GoodsType": "GoodsType_Item",
				"Id": 2002,
				"Count": 1
			},
			{
				"GoodsType": "GoodsType_Item",
				"Id": 2003,
				"Count": 1
			}
		],
		"Strategy": ""
	},
	"7": {
		"ID": 7,
		"Name": "盗贼盗贼",
		"IconResource": "",
		"OpenPlayerLevel": 50,
		"EnergyFail": 6,
		"EnergySuccess": 20,
		"TicketCost": 1,
		"BattleID": 3006,
		"MonsterLevel": 50,
		"PlayerExp": 20,
		"HeroExp": 0,
		"BanditsID": [
			25,
			26,
			27,
			28
		],
		"RewardList": [
			{
				"GoodsType": "GoodsType_Item",
				"Id": 2001,
				"Count": 1
			},
			{
				"GoodsType": "GoodsType_Item",
				"Id": 2002,
				"Count": 1
			},
			{
				"GoodsType": "GoodsType_Item",
				"Id": 2003,
				"Count": 1
			}
		],
		"Strategy": ""
	},
	"8": {
		"ID": 8,
		"Name": "盗贼盗贼",
		"IconResource": "",
		"OpenPlayerLevel": 55,
		"EnergyFail": 6,
		"EnergySuccess": 20,
		"TicketCost": 1,
		"BattleID": 3007,
		"MonsterLevel": 55,
		"PlayerExp": 20,
		"HeroExp": 0,
		"BanditsID": [
			29,
			30,
			31,
			32
		],
		"RewardList": [
			{
				"GoodsType": "GoodsType_Item",
				"Id": 2001,
				"Count": 1
			},
			{
				"GoodsType": "GoodsType_Item",
				"Id": 2002,
				"Count": 1
			},
			{
				"GoodsType": "GoodsType_Item",
				"Id": 2003,
				"Count": 1
			}
		],
		"Strategy": ""
	},
	"9": {
		"ID": 9,
		"Name": "盗贼盗贼",
		"IconResource": "",
		"OpenPlayerLevel": 60,
		"EnergyFail": 6,
		"EnergySuccess": 20,
		"TicketCost": 1,
		"BattleID": 3008,
		"MonsterLevel": 60,
		"PlayerExp": 20,
		"HeroExp": 0,
		"BanditsID": [
			33,
			34,
			35,
			36
		],
		"RewardList": [
			{
				"GoodsType": "GoodsType_Item",
				"Id": 2001,
				"Count": 1
			},
			{
				"GoodsType": "GoodsType_Item",
				"Id": 2002,
				"Count": 1
			},
			{
				"GoodsType": "GoodsType_Item",
				"Id": 2003,
				"Count": 1
			}
		],
		"Strategy": ""
	},
	"10": {
		"ID": 10,
		"Name": "盗贼盗贼",
		"IconResource": "",
		"OpenPlayerLevel": 60,
		"EnergyFail": 6,
		"EnergySuccess": 20,
		"TicketCost": 1,
		"BattleID": 3009,
		"MonsterLevel": 65,
		"PlayerExp": 20,
		"HeroExp": 0,
		"BanditsID": [
			37,
			38,
			39,
			40
		],
		"RewardList": [
			{
				"GoodsType": "GoodsType_Item",
				"Id": 2001,
				"Count": 1
			},
			{
				"GoodsType": "GoodsType_Item",
				"Id": 2002,
				"Count": 1
			},
			{
				"GoodsType": "GoodsType_Item",
				"Id": 2003,
				"Count": 1
			}
		],
		"Strategy": ""
	}
}